%YAML 1.1
%TAG !u! tag:unity3d.com,2011:
--- !u!114 &11400000
MonoBehaviour:
  m_ObjectHideFlags: 0
  m_CorrespondingSourceObject: {fileID: 0}
  m_PrefabInstance: {fileID: 0}
  m_PrefabAsset: {fileID: 0}
  m_GameObject: {fileID: 0}
  m_Enabled: 1
  m_EditorHideFlags: 0
  m_Script: {fileID: 11500000, guid: 663d4e85ba4179b4ba43374940c99943, type: 3}
  m_Name: CHA_DuoColor_01_SO
  m_EditorClassIdentifier: 
  ColorName: D Blue
  PrimaryColor: {r: 0.2688679, g: 0.518313, b: 1, a: 1}
  PatternColor: {r: 1, g: 0, b: 1, a: 1}
  SecondaryColor: {r: 1, g: 1, b: 1, a: 1}
  DisplayIcon: {fileID: 0}
