%YAML 1.1
%TAG !u! tag:unity3d.com,2011:
--- !u!1001 &4515534095949092772
PrefabInstance:
  m_ObjectHideFlags: 0
  serializedVersion: 2
  m_Modification:
    m_TransformParent: {fileID: 0}
    m_Modifications:
    - target: {fileID: 2733499689118858237, guid: 72f2584592cd4fd4c94c94b6713e0662, type: 3}
      propertyPath: m_RootOrder
      value: 0
      objectReference: {fileID: 0}
    - target: {fileID: 2733499689118858237, guid: 72f2584592cd4fd4c94c94b6713e0662, type: 3}
      propertyPath: m_LocalPosition.x
      value: 0
      objectReference: {fileID: 0}
    - target: {fileID: 2733499689118858237, guid: 72f2584592cd4fd4c94c94b6713e0662, type: 3}
      propertyPath: m_LocalPosition.y
      value: 0
      objectReference: {fileID: 0}
    - target: {fileID: 2733499689118858237, guid: 72f2584592cd4fd4c94c94b6713e0662, type: 3}
      propertyPath: m_LocalPosition.z
      value: 0
      objectReference: {fileID: 0}
    - target: {fileID: 2733499689118858237, guid: 72f2584592cd4fd4c94c94b6713e0662, type: 3}
      propertyPath: m_LocalRotation.w
      value: 1
      objectReference: {fileID: 0}
    - target: {fileID: 2733499689118858237, guid: 72f2584592cd4fd4c94c94b6713e0662, type: 3}
      propertyPath: m_LocalRotation.x
      value: 0
      objectReference: {fileID: 0}
    - target: {fileID: 2733499689118858237, guid: 72f2584592cd4fd4c94c94b6713e0662, type: 3}
      propertyPath: m_LocalRotation.y
      value: 0
      objectReference: {fileID: 0}
    - target: {fileID: 2733499689118858237, guid: 72f2584592cd4fd4c94c94b6713e0662, type: 3}
      propertyPath: m_LocalRotation.z
      value: 0
      objectReference: {fileID: 0}
    - target: {fileID: 2733499689118858237, guid: 72f2584592cd4fd4c94c94b6713e0662, type: 3}
      propertyPath: m_LocalEulerAnglesHint.x
      value: 0
      objectReference: {fileID: 0}
    - target: {fileID: 2733499689118858237, guid: 72f2584592cd4fd4c94c94b6713e0662, type: 3}
      propertyPath: m_LocalEulerAnglesHint.y
      value: 0
      objectReference: {fileID: 0}
    - target: {fileID: 2733499689118858237, guid: 72f2584592cd4fd4c94c94b6713e0662, type: 3}
      propertyPath: m_LocalEulerAnglesHint.z
      value: 0
      objectReference: {fileID: 0}
    - target: {fileID: 2733499689118858239, guid: 72f2584592cd4fd4c94c94b6713e0662, type: 3}
      propertyPath: m_Name
      value: ENV_GroundGrass_020_PB
      objectReference: {fileID: 0}
    - target: {fileID: 2733499689764028214, guid: 72f2584592cd4fd4c94c94b6713e0662, type: 3}
      propertyPath: m_Mesh
      value: 
      objectReference: {fileID: -1559983877462760641, guid: 2eb643109cd50f541b9f2decccd24b6c, type: 3}
    m_RemovedComponents: []
  m_SourcePrefab: {fileID: 100100000, guid: 72f2584592cd4fd4c94c94b6713e0662, type: 3}
