%YAML 1.1
%TAG !u! tag:unity3d.com,2011:
--- !u!114 &11400000
MonoBehaviour:
  m_ObjectHideFlags: 0
  m_CorrespondingSourceObject: {fileID: 0}
  m_PrefabInstance: {fileID: 0}
  m_PrefabAsset: {fileID: 0}
  m_GameObject: {fileID: 0}
  m_Enabled: 1
  m_EditorHideFlags: 0
  m_Script: {fileID: 11500000, guid: d4183e885ab27ff49acae500e04d416b, type: 3}
  m_Name: CHA_Pattern_01_SO
  m_EditorClassIdentifier: 
  PatternName: Camo
  PatternMask: {fileID: 2800000, guid: 52a8bdd496fde67458f79ed4471b16b0, type: 3}
