%YAML 1.1
%TAG !u! tag:unity3d.com,2011:
--- !u!114 &11400000
MonoBehaviour:
  m_ObjectHideFlags: 0
  m_CorrespondingSourceObject: {fileID: 0}
  m_PrefabInstance: {fileID: 0}
  m_PrefabAsset: {fileID: 0}
  m_GameObject: {fileID: 0}
  m_Enabled: 1
  m_EditorHideFlags: 0
  m_Script: {fileID: 11500000, guid: 407d646ec5008a54f9631d3550ebb75c, type: 3}
  m_Name: CHA_LayerTest_Shoes_SO
  m_EditorClassIdentifier: 
  itemName: Standalone Shoes
  itemDescription: 'No pun intended

'
  itemIcon: {fileID: 21300000, guid: ca7bf8f321726f84995a5fbe11adf647, type: 3}
  inWorldAsset: {fileID: 100096, guid: 412b92d4feeb9c548bfa98f62c4d1022, type: 3}
  rarity: 0
  purchaseCost: 10
  resalePrice: 5
  stackableQuantity: 1
  isStarterItem: 0
  isSellableItem: 1
  WearableSlot: 4
  MaskRegions: 04000000
  chibiAsset: {fileID: 7269762719663126188, guid: d45e7fb885345944c933df3484b599b3, type: 3}
  avatarAsset: {fileID: 0}
  defaultColorConfig: {fileID: 11400000, guid: 8b1d2e636419da34c9a454081db595d5, type: 2}
  health: 0
  attack: 0
  defence: 3
  range: 0
  speed: 5
  luck: 0
  charm: 0
