%YAML 1.1
%TAG !u! tag:unity3d.com,2011:
--- !u!181963792 &2655988077585873504
Preset:
  m_ObjectHideFlags: 0
  m_CorrespondingSourceObject: {fileID: 0}
  m_PrefabInstance: {fileID: 0}
  m_PrefabAsset: {fileID: 0}
  m_Name: ITM_FBXImporter_MO
  m_TargetType:
    m_NativeTypeID: 1041
    m_ManagedTypePPtr: {fileID: 0}
    m_ManagedTypeFallback: 
  m_Properties:
  - target: {fileID: 0}
    propertyPath: m_ExternalObjects.Array.size
    value: 0
    objectReference: {fileID: 0}
  - target: {fileID: 0}
    propertyPath: m_MaterialImportMode
    value: 0
    objectReference: {fileID: 0}
  - target: {fileID: 0}
    propertyPath: m_MaterialName
    value: 0
    objectReference: {fileID: 0}
  - target: {fileID: 0}
    propertyPath: m_MaterialSearch
    value: 1
    objectReference: {fileID: 0}
  - target: {fileID: 0}
    propertyPath: m_MaterialLocation
    value: 1
    objectReference: {fileID: 0}
  - target: {fileID: 0}
    propertyPath: m_LegacyGenerateAnimations
    value: 4
    objectReference: {fileID: 0}
  - target: {fileID: 0}
    propertyPath: m_BakeSimulation
    value: 0
    objectReference: {fileID: 0}
  - target: {fileID: 0}
    propertyPath: m_ResampleCurves
    value: 1
    objectReference: {fileID: 0}
  - target: {fileID: 0}
    propertyPath: m_OptimizeGameObjects
    value: 0
    objectReference: {fileID: 0}
  - target: {fileID: 0}
    propertyPath: m_RemoveConstantScaleCurves
    value: 1
    objectReference: {fileID: 0}
  - target: {fileID: 0}
    propertyPath: m_MotionNodeName
    value: 
    objectReference: {fileID: 0}
  - target: {fileID: 0}
    propertyPath: m_RigImportErrors
    value: 
    objectReference: {fileID: 0}
  - target: {fileID: 0}
    propertyPath: m_RigImportWarnings
    value: 
    objectReference: {fileID: 0}
  - target: {fileID: 0}
    propertyPath: m_AnimationImportErrors
    value: 
    objectReference: {fileID: 0}
  - target: {fileID: 0}
    propertyPath: m_AnimationImportWarnings
    value: 
    objectReference: {fileID: 0}
  - target: {fileID: 0}
    propertyPath: m_AnimationRetargetingWarnings
    value: 
    objectReference: {fileID: 0}
  - target: {fileID: 0}
    propertyPath: m_AnimationDoRetargetingWarnings
    value: 0
    objectReference: {fileID: 0}
  - target: {fileID: 0}
    propertyPath: m_ImportAnimatedCustomProperties
    value: 0
    objectReference: {fileID: 0}
  - target: {fileID: 0}
    propertyPath: m_ImportConstraints
    value: 0
    objectReference: {fileID: 0}
  - target: {fileID: 0}
    propertyPath: m_AnimationCompression
    value: 3
    objectReference: {fileID: 0}
  - target: {fileID: 0}
    propertyPath: m_AnimationRotationError
    value: 0.5
    objectReference: {fileID: 0}
  - target: {fileID: 0}
    propertyPath: m_AnimationPositionError
    value: 0.5
    objectReference: {fileID: 0}
  - target: {fileID: 0}
    propertyPath: m_AnimationScaleError
    value: 0.5
    objectReference: {fileID: 0}
  - target: {fileID: 0}
    propertyPath: m_AnimationWrapMode
    value: 0
    objectReference: {fileID: 0}
  - target: {fileID: 0}
    propertyPath: m_ExtraExposedTransformPaths.Array.size
    value: 0
    objectReference: {fileID: 0}
  - target: {fileID: 0}
    propertyPath: m_ExtraUserProperties.Array.size
    value: 0
    objectReference: {fileID: 0}
  - target: {fileID: 0}
    propertyPath: m_ClipAnimations.Array.size
    value: 0
    objectReference: {fileID: 0}
  - target: {fileID: 0}
    propertyPath: m_IsReadable
    value: 0
    objectReference: {fileID: 0}
  - target: {fileID: 0}
    propertyPath: m_LODScreenPercentages.Array.size
    value: 0
    objectReference: {fileID: 0}
  - target: {fileID: 0}
    propertyPath: m_GlobalScale
    value: 1
    objectReference: {fileID: 0}
  - target: {fileID: 0}
    propertyPath: m_MeshCompression
    value: 2
    objectReference: {fileID: 0}
  - target: {fileID: 0}
    propertyPath: m_AddColliders
    value: 0
    objectReference: {fileID: 0}
  - target: {fileID: 0}
    propertyPath: m_UseSRGBMaterialColor
    value: 1
    objectReference: {fileID: 0}
  - target: {fileID: 0}
    propertyPath: m_SortHierarchyByName
    value: 1
    objectReference: {fileID: 0}
  - target: {fileID: 0}
    propertyPath: m_ImportVisibility
    value: 1
    objectReference: {fileID: 0}
  - target: {fileID: 0}
    propertyPath: m_ImportBlendShapes
    value: 1
    objectReference: {fileID: 0}
  - target: {fileID: 0}
    propertyPath: m_ImportCameras
    value: 1
    objectReference: {fileID: 0}
  - target: {fileID: 0}
    propertyPath: m_ImportLights
    value: 1
    objectReference: {fileID: 0}
  - target: {fileID: 0}
    propertyPath: m_NodeNameCollisionStrategy
    value: 1
    objectReference: {fileID: 0}
  - target: {fileID: 0}
    propertyPath: swapUVChannels
    value: 0
    objectReference: {fileID: 0}
  - target: {fileID: 0}
    propertyPath: generateSecondaryUV
    value: 0
    objectReference: {fileID: 0}
  - target: {fileID: 0}
    propertyPath: m_UseFileUnits
    value: 1
    objectReference: {fileID: 0}
  - target: {fileID: 0}
    propertyPath: keepQuads
    value: 0
    objectReference: {fileID: 0}
  - target: {fileID: 0}
    propertyPath: weldVertices
    value: 1
    objectReference: {fileID: 0}
  - target: {fileID: 0}
    propertyPath: bakeAxisConversion
    value: 0
    objectReference: {fileID: 0}
  - target: {fileID: 0}
    propertyPath: m_PreserveHierarchy
    value: 0
    objectReference: {fileID: 0}
  - target: {fileID: 0}
    propertyPath: skinWeightsMode
    value: 0
    objectReference: {fileID: 0}
  - target: {fileID: 0}
    propertyPath: maxBonesPerVertex
    value: 4
    objectReference: {fileID: 0}
  - target: {fileID: 0}
    propertyPath: minBoneWeight
    value: 0.001
    objectReference: {fileID: 0}
  - target: {fileID: 0}
    propertyPath: optimizeBones
    value: 0
    objectReference: {fileID: 0}
  - target: {fileID: 0}
    propertyPath: meshOptimizationFlags
    value: -1
    objectReference: {fileID: 0}
  - target: {fileID: 0}
    propertyPath: indexFormat
    value: 0
    objectReference: {fileID: 0}
  - target: {fileID: 0}
    propertyPath: secondaryUVAngleDistortion
    value: 8
    objectReference: {fileID: 0}
  - target: {fileID: 0}
    propertyPath: secondaryUVAreaDistortion
    value: 15.000001
    objectReference: {fileID: 0}
  - target: {fileID: 0}
    propertyPath: secondaryUVHardAngle
    value: 88
    objectReference: {fileID: 0}
  - target: {fileID: 0}
    propertyPath: secondaryUVMarginMethod
    value: 1
    objectReference: {fileID: 0}
  - target: {fileID: 0}
    propertyPath: secondaryUVMinLightmapResolution
    value: 40
    objectReference: {fileID: 0}
  - target: {fileID: 0}
    propertyPath: secondaryUVMinObjectScale
    value: 1
    objectReference: {fileID: 0}
  - target: {fileID: 0}
    propertyPath: secondaryUVPackMargin
    value: 4
    objectReference: {fileID: 0}
  - target: {fileID: 0}
    propertyPath: m_UseFileScale
    value: 1
    objectReference: {fileID: 0}
  - target: {fileID: 0}
    propertyPath: normalSmoothAngle
    value: 90
    objectReference: {fileID: 0}
  - target: {fileID: 0}
    propertyPath: normalImportMode
    value: 0
    objectReference: {fileID: 0}
  - target: {fileID: 0}
    propertyPath: tangentImportMode
    value: 0
    objectReference: {fileID: 0}
  - target: {fileID: 0}
    propertyPath: normalCalculationMode
    value: 4
    objectReference: {fileID: 0}
  - target: {fileID: 0}
    propertyPath: legacyComputeAllNormalsFromSmoothingGroupsWhenMeshHasBlendShapes
    value: 0
    objectReference: {fileID: 0}
  - target: {fileID: 0}
    propertyPath: blendShapeNormalImportMode
    value: 0
    objectReference: {fileID: 0}
  - target: {fileID: 0}
    propertyPath: normalSmoothingSource
    value: 0
    objectReference: {fileID: 0}
  - target: {fileID: 0}
    propertyPath: m_ReferencedClips.Array.size
    value: 0
    objectReference: {fileID: 0}
  - target: {fileID: 0}
    propertyPath: m_ImportAnimation
    value: 0
    objectReference: {fileID: 0}
  - target: {fileID: 0}
    propertyPath: m_HumanDescription.m_Human.Array.size
    value: 0
    objectReference: {fileID: 0}
  - target: {fileID: 0}
    propertyPath: m_HumanDescription.m_Skeleton.Array.size
    value: 28
    objectReference: {fileID: 0}
  - target: {fileID: 0}
    propertyPath: m_HumanDescription.m_Skeleton.Array.data[0].m_Name
    value: CHA_Base_Ingame_MO(Clone)
    objectReference: {fileID: 0}
  - target: {fileID: 0}
    propertyPath: m_HumanDescription.m_Skeleton.Array.data[0].m_ParentName
    value: 
    objectReference: {fileID: 0}
  - target: {fileID: 0}
    propertyPath: m_HumanDescription.m_Skeleton.Array.data[0].m_Position.x
    value: 0
    objectReference: {fileID: 0}
  - target: {fileID: 0}
    propertyPath: m_HumanDescription.m_Skeleton.Array.data[0].m_Position.y
    value: 0
    objectReference: {fileID: 0}
  - target: {fileID: 0}
    propertyPath: m_HumanDescription.m_Skeleton.Array.data[0].m_Position.z
    value: 0
    objectReference: {fileID: 0}
  - target: {fileID: 0}
    propertyPath: m_HumanDescription.m_Skeleton.Array.data[0].m_Rotation.x
    value: 0
    objectReference: {fileID: 0}
  - target: {fileID: 0}
    propertyPath: m_HumanDescription.m_Skeleton.Array.data[0].m_Rotation.y
    value: 0
    objectReference: {fileID: 0}
  - target: {fileID: 0}
    propertyPath: m_HumanDescription.m_Skeleton.Array.data[0].m_Rotation.z
    value: 0
    objectReference: {fileID: 0}
  - target: {fileID: 0}
    propertyPath: m_HumanDescription.m_Skeleton.Array.data[0].m_Rotation.w
    value: 1
    objectReference: {fileID: 0}
  - target: {fileID: 0}
    propertyPath: m_HumanDescription.m_Skeleton.Array.data[0].m_Scale.x
    value: 1
    objectReference: {fileID: 0}
  - target: {fileID: 0}
    propertyPath: m_HumanDescription.m_Skeleton.Array.data[0].m_Scale.y
    value: 1
    objectReference: {fileID: 0}
  - target: {fileID: 0}
    propertyPath: m_HumanDescription.m_Skeleton.Array.data[0].m_Scale.z
    value: 1
    objectReference: {fileID: 0}
  - target: {fileID: 0}
    propertyPath: m_HumanDescription.m_Skeleton.Array.data[1].m_Name
    value: GEO
    objectReference: {fileID: 0}
  - target: {fileID: 0}
    propertyPath: m_HumanDescription.m_Skeleton.Array.data[1].m_ParentName
    value: CHA_Base_Ingame_MO(Clone)
    objectReference: {fileID: 0}
  - target: {fileID: 0}
    propertyPath: m_HumanDescription.m_Skeleton.Array.data[1].m_Position.x
    value: -0
    objectReference: {fileID: 0}
  - target: {fileID: 0}
    propertyPath: m_HumanDescription.m_Skeleton.Array.data[1].m_Position.y
    value: 0
    objectReference: {fileID: 0}
  - target: {fileID: 0}
    propertyPath: m_HumanDescription.m_Skeleton.Array.data[1].m_Position.z
    value: 0
    objectReference: {fileID: 0}
  - target: {fileID: 0}
    propertyPath: m_HumanDescription.m_Skeleton.Array.data[1].m_Rotation.x
    value: 0
    objectReference: {fileID: 0}
  - target: {fileID: 0}
    propertyPath: m_HumanDescription.m_Skeleton.Array.data[1].m_Rotation.y
    value: -0
    objectReference: {fileID: 0}
  - target: {fileID: 0}
    propertyPath: m_HumanDescription.m_Skeleton.Array.data[1].m_Rotation.z
    value: -0
    objectReference: {fileID: 0}
  - target: {fileID: 0}
    propertyPath: m_HumanDescription.m_Skeleton.Array.data[1].m_Rotation.w
    value: 1
    objectReference: {fileID: 0}
  - target: {fileID: 0}
    propertyPath: m_HumanDescription.m_Skeleton.Array.data[1].m_Scale.x
    value: 1
    objectReference: {fileID: 0}
  - target: {fileID: 0}
    propertyPath: m_HumanDescription.m_Skeleton.Array.data[1].m_Scale.y
    value: 1
    objectReference: {fileID: 0}
  - target: {fileID: 0}
    propertyPath: m_HumanDescription.m_Skeleton.Array.data[1].m_Scale.z
    value: 1
    objectReference: {fileID: 0}
  - target: {fileID: 0}
    propertyPath: m_HumanDescription.m_Skeleton.Array.data[2].m_Name
    value: CHA_Base_01_MO
    objectReference: {fileID: 0}
  - target: {fileID: 0}
    propertyPath: m_HumanDescription.m_Skeleton.Array.data[2].m_ParentName
    value: GEO
    objectReference: {fileID: 0}
  - target: {fileID: 0}
    propertyPath: m_HumanDescription.m_Skeleton.Array.data[2].m_Position.x
    value: -0
    objectReference: {fileID: 0}
  - target: {fileID: 0}
    propertyPath: m_HumanDescription.m_Skeleton.Array.data[2].m_Position.y
    value: 0
    objectReference: {fileID: 0}
  - target: {fileID: 0}
    propertyPath: m_HumanDescription.m_Skeleton.Array.data[2].m_Position.z
    value: 0
    objectReference: {fileID: 0}
  - target: {fileID: 0}
    propertyPath: m_HumanDescription.m_Skeleton.Array.data[2].m_Rotation.x
    value: 0
    objectReference: {fileID: 0}
  - target: {fileID: 0}
    propertyPath: m_HumanDescription.m_Skeleton.Array.data[2].m_Rotation.y
    value: -0
    objectReference: {fileID: 0}
  - target: {fileID: 0}
    propertyPath: m_HumanDescription.m_Skeleton.Array.data[2].m_Rotation.z
    value: -0
    objectReference: {fileID: 0}
  - target: {fileID: 0}
    propertyPath: m_HumanDescription.m_Skeleton.Array.data[2].m_Rotation.w
    value: 1
    objectReference: {fileID: 0}
  - target: {fileID: 0}
    propertyPath: m_HumanDescription.m_Skeleton.Array.data[2].m_Scale.x
    value: 1
    objectReference: {fileID: 0}
  - target: {fileID: 0}
    propertyPath: m_HumanDescription.m_Skeleton.Array.data[2].m_Scale.y
    value: 1
    objectReference: {fileID: 0}
  - target: {fileID: 0}
    propertyPath: m_HumanDescription.m_Skeleton.Array.data[2].m_Scale.z
    value: 1
    objectReference: {fileID: 0}
  - target: {fileID: 0}
    propertyPath: m_HumanDescription.m_Skeleton.Array.data[3].m_Name
    value: JOINTS
    objectReference: {fileID: 0}
  - target: {fileID: 0}
    propertyPath: m_HumanDescription.m_Skeleton.Array.data[3].m_ParentName
    value: CHA_Base_Ingame_MO(Clone)
    objectReference: {fileID: 0}
  - target: {fileID: 0}
    propertyPath: m_HumanDescription.m_Skeleton.Array.data[3].m_Position.x
    value: -0
    objectReference: {fileID: 0}
  - target: {fileID: 0}
    propertyPath: m_HumanDescription.m_Skeleton.Array.data[3].m_Position.y
    value: 0
    objectReference: {fileID: 0}
  - target: {fileID: 0}
    propertyPath: m_HumanDescription.m_Skeleton.Array.data[3].m_Position.z
    value: 0
    objectReference: {fileID: 0}
  - target: {fileID: 0}
    propertyPath: m_HumanDescription.m_Skeleton.Array.data[3].m_Rotation.x
    value: 0
    objectReference: {fileID: 0}
  - target: {fileID: 0}
    propertyPath: m_HumanDescription.m_Skeleton.Array.data[3].m_Rotation.y
    value: -0
    objectReference: {fileID: 0}
  - target: {fileID: 0}
    propertyPath: m_HumanDescription.m_Skeleton.Array.data[3].m_Rotation.z
    value: -0
    objectReference: {fileID: 0}
  - target: {fileID: 0}
    propertyPath: m_HumanDescription.m_Skeleton.Array.data[3].m_Rotation.w
    value: 1
    objectReference: {fileID: 0}
  - target: {fileID: 0}
    propertyPath: m_HumanDescription.m_Skeleton.Array.data[3].m_Scale.x
    value: 1
    objectReference: {fileID: 0}
  - target: {fileID: 0}
    propertyPath: m_HumanDescription.m_Skeleton.Array.data[3].m_Scale.y
    value: 1
    objectReference: {fileID: 0}
  - target: {fileID: 0}
    propertyPath: m_HumanDescription.m_Skeleton.Array.data[3].m_Scale.z
    value: 1
    objectReference: {fileID: 0}
  - target: {fileID: 0}
    propertyPath: m_HumanDescription.m_Skeleton.Array.data[4].m_Name
    value: joint_Root
    objectReference: {fileID: 0}
  - target: {fileID: 0}
    propertyPath: m_HumanDescription.m_Skeleton.Array.data[4].m_ParentName
    value: JOINTS
    objectReference: {fileID: 0}
  - target: {fileID: 0}
    propertyPath: m_HumanDescription.m_Skeleton.Array.data[4].m_Position.x
    value: -0
    objectReference: {fileID: 0}
  - target: {fileID: 0}
    propertyPath: m_HumanDescription.m_Skeleton.Array.data[4].m_Position.y
    value: 0
    objectReference: {fileID: 0}
  - target: {fileID: 0}
    propertyPath: m_HumanDescription.m_Skeleton.Array.data[4].m_Position.z
    value: 0
    objectReference: {fileID: 0}
  - target: {fileID: 0}
    propertyPath: m_HumanDescription.m_Skeleton.Array.data[4].m_Rotation.x
    value: 0
    objectReference: {fileID: 0}
  - target: {fileID: 0}
    propertyPath: m_HumanDescription.m_Skeleton.Array.data[4].m_Rotation.y
    value: -0
    objectReference: {fileID: 0}
  - target: {fileID: 0}
    propertyPath: m_HumanDescription.m_Skeleton.Array.data[4].m_Rotation.z
    value: -0
    objectReference: {fileID: 0}
  - target: {fileID: 0}
    propertyPath: m_HumanDescription.m_Skeleton.Array.data[4].m_Rotation.w
    value: 1
    objectReference: {fileID: 0}
  - target: {fileID: 0}
    propertyPath: m_HumanDescription.m_Skeleton.Array.data[4].m_Scale.x
    value: 1
    objectReference: {fileID: 0}
  - target: {fileID: 0}
    propertyPath: m_HumanDescription.m_Skeleton.Array.data[4].m_Scale.y
    value: 1
    objectReference: {fileID: 0}
  - target: {fileID: 0}
    propertyPath: m_HumanDescription.m_Skeleton.Array.data[4].m_Scale.z
    value: 1
    objectReference: {fileID: 0}
  - target: {fileID: 0}
    propertyPath: m_HumanDescription.m_Skeleton.Array.data[5].m_Name
    value: joint_Hips
    objectReference: {fileID: 0}
  - target: {fileID: 0}
    propertyPath: m_HumanDescription.m_Skeleton.Array.data[5].m_ParentName
    value: joint_Root
    objectReference: {fileID: 0}
  - target: {fileID: 0}
    propertyPath: m_HumanDescription.m_Skeleton.Array.data[5].m_Position.x
    value: -0
    objectReference: {fileID: 0}
  - target: {fileID: 0}
    propertyPath: m_HumanDescription.m_Skeleton.Array.data[5].m_Position.y
    value: 0.26999998
    objectReference: {fileID: 0}
  - target: {fileID: 0}
    propertyPath: m_HumanDescription.m_Skeleton.Array.data[5].m_Position.z
    value: 0.033208326
    objectReference: {fileID: 0}
  - target: {fileID: 0}
    propertyPath: m_HumanDescription.m_Skeleton.Array.data[5].m_Rotation.x
    value: 0
    objectReference: {fileID: 0}
  - target: {fileID: 0}
    propertyPath: m_HumanDescription.m_Skeleton.Array.data[5].m_Rotation.y
    value: -0
    objectReference: {fileID: 0}
  - target: {fileID: 0}
    propertyPath: m_HumanDescription.m_Skeleton.Array.data[5].m_Rotation.z
    value: -0.7071068
    objectReference: {fileID: 0}
  - target: {fileID: 0}
    propertyPath: m_HumanDescription.m_Skeleton.Array.data[5].m_Rotation.w
    value: 0.7071068
    objectReference: {fileID: 0}
  - target: {fileID: 0}
    propertyPath: m_HumanDescription.m_Skeleton.Array.data[5].m_Scale.x
    value: 1
    objectReference: {fileID: 0}
  - target: {fileID: 0}
    propertyPath: m_HumanDescription.m_Skeleton.Array.data[5].m_Scale.y
    value: 1
    objectReference: {fileID: 0}
  - target: {fileID: 0}
    propertyPath: m_HumanDescription.m_Skeleton.Array.data[5].m_Scale.z
    value: 1
    objectReference: {fileID: 0}
  - target: {fileID: 0}
    propertyPath: m_HumanDescription.m_Skeleton.Array.data[6].m_Name
    value: joint_Spine
    objectReference: {fileID: 0}
  - target: {fileID: 0}
    propertyPath: m_HumanDescription.m_Skeleton.Array.data[6].m_ParentName
    value: joint_Hips
    objectReference: {fileID: 0}
  - target: {fileID: 0}
    propertyPath: m_HumanDescription.m_Skeleton.Array.data[6].m_Position.x
    value: -0.08
    objectReference: {fileID: 0}
  - target: {fileID: 0}
    propertyPath: m_HumanDescription.m_Skeleton.Array.data[6].m_Position.y
    value: 0
    objectReference: {fileID: 0}
  - target: {fileID: 0}
    propertyPath: m_HumanDescription.m_Skeleton.Array.data[6].m_Position.z
    value: 0.012302328
    objectReference: {fileID: 0}
  - target: {fileID: 0}
    propertyPath: m_HumanDescription.m_Skeleton.Array.data[6].m_Rotation.x
    value: 0
    objectReference: {fileID: 0}
  - target: {fileID: 0}
    propertyPath: m_HumanDescription.m_Skeleton.Array.data[6].m_Rotation.y
    value: -0
    objectReference: {fileID: 0}
  - target: {fileID: 0}
    propertyPath: m_HumanDescription.m_Skeleton.Array.data[6].m_Rotation.z
    value: -0
    objectReference: {fileID: 0}
  - target: {fileID: 0}
    propertyPath: m_HumanDescription.m_Skeleton.Array.data[6].m_Rotation.w
    value: 1
    objectReference: {fileID: 0}
  - target: {fileID: 0}
    propertyPath: m_HumanDescription.m_Skeleton.Array.data[6].m_Scale.x
    value: 1
    objectReference: {fileID: 0}
  - target: {fileID: 0}
    propertyPath: m_HumanDescription.m_Skeleton.Array.data[6].m_Scale.y
    value: 1
    objectReference: {fileID: 0}
  - target: {fileID: 0}
    propertyPath: m_HumanDescription.m_Skeleton.Array.data[6].m_Scale.z
    value: 1
    objectReference: {fileID: 0}
  - target: {fileID: 0}
    propertyPath: m_HumanDescription.m_Skeleton.Array.data[7].m_Name
    value: joint_Chest
    objectReference: {fileID: 0}
  - target: {fileID: 0}
    propertyPath: m_HumanDescription.m_Skeleton.Array.data[7].m_ParentName
    value: joint_Spine
    objectReference: {fileID: 0}
  - target: {fileID: 0}
    propertyPath: m_HumanDescription.m_Skeleton.Array.data[7].m_Position.x
    value: -0.12
    objectReference: {fileID: 0}
  - target: {fileID: 0}
    propertyPath: m_HumanDescription.m_Skeleton.Array.data[7].m_Position.y
    value: 0
    objectReference: {fileID: 0}
  - target: {fileID: 0}
    propertyPath: m_HumanDescription.m_Skeleton.Array.data[7].m_Position.z
    value: -0.00053555646
    objectReference: {fileID: 0}
  - target: {fileID: 0}
    propertyPath: m_HumanDescription.m_Skeleton.Array.data[7].m_Rotation.x
    value: 0
    objectReference: {fileID: 0}
  - target: {fileID: 0}
    propertyPath: m_HumanDescription.m_Skeleton.Array.data[7].m_Rotation.y
    value: -0
    objectReference: {fileID: 0}
  - target: {fileID: 0}
    propertyPath: m_HumanDescription.m_Skeleton.Array.data[7].m_Rotation.z
    value: -0
    objectReference: {fileID: 0}
  - target: {fileID: 0}
    propertyPath: m_HumanDescription.m_Skeleton.Array.data[7].m_Rotation.w
    value: 1
    objectReference: {fileID: 0}
  - target: {fileID: 0}
    propertyPath: m_HumanDescription.m_Skeleton.Array.data[7].m_Scale.x
    value: 1
    objectReference: {fileID: 0}
  - target: {fileID: 0}
    propertyPath: m_HumanDescription.m_Skeleton.Array.data[7].m_Scale.y
    value: 1
    objectReference: {fileID: 0}
  - target: {fileID: 0}
    propertyPath: m_HumanDescription.m_Skeleton.Array.data[7].m_Scale.z
    value: 1
    objectReference: {fileID: 0}
  - target: {fileID: 0}
    propertyPath: m_HumanDescription.m_Skeleton.Array.data[8].m_Name
    value: joint_Left_Shoulder
    objectReference: {fileID: 0}
  - target: {fileID: 0}
    propertyPath: m_HumanDescription.m_Skeleton.Array.data[8].m_ParentName
    value: joint_Chest
    objectReference: {fileID: 0}
  - target: {fileID: 0}
    propertyPath: m_HumanDescription.m_Skeleton.Array.data[8].m_Position.x
    value: -0.033815093
    objectReference: {fileID: 0}
  - target: {fileID: 0}
    propertyPath: m_HumanDescription.m_Skeleton.Array.data[8].m_Position.y
    value: -0.093309626
    objectReference: {fileID: 0}
  - target: {fileID: 0}
    propertyPath: m_HumanDescription.m_Skeleton.Array.data[8].m_Position.z
    value: -0.011766772
    objectReference: {fileID: 0}
  - target: {fileID: 0}
    propertyPath: m_HumanDescription.m_Skeleton.Array.data[8].m_Rotation.x
    value: -0.02608495
    objectReference: {fileID: 0}
  - target: {fileID: 0}
    propertyPath: m_HumanDescription.m_Skeleton.Array.data[8].m_Rotation.y
    value: 0.026084976
    objectReference: {fileID: 0}
  - target: {fileID: 0}
    propertyPath: m_HumanDescription.m_Skeleton.Array.data[8].m_Rotation.z
    value: 0.62769
    objectReference: {fileID: 0}
  - target: {fileID: 0}
    propertyPath: m_HumanDescription.m_Skeleton.Array.data[8].m_Rotation.w
    value: 0.7775888
    objectReference: {fileID: 0}
  - target: {fileID: 0}
    propertyPath: m_HumanDescription.m_Skeleton.Array.data[8].m_Scale.x
    value: 1
    objectReference: {fileID: 0}
  - target: {fileID: 0}
    propertyPath: m_HumanDescription.m_Skeleton.Array.data[8].m_Scale.y
    value: 1
    objectReference: {fileID: 0}
  - target: {fileID: 0}
    propertyPath: m_HumanDescription.m_Skeleton.Array.data[8].m_Scale.z
    value: 1
    objectReference: {fileID: 0}
  - target: {fileID: 0}
    propertyPath: m_HumanDescription.m_Skeleton.Array.data[9].m_Name
    value: joint_Left_UpperArm
    objectReference: {fileID: 0}
  - target: {fileID: 0}
    propertyPath: m_HumanDescription.m_Skeleton.Array.data[9].m_ParentName
    value: joint_Left_Shoulder
    objectReference: {fileID: 0}
  - target: {fileID: 0}
    propertyPath: m_HumanDescription.m_Skeleton.Array.data[9].m_Position.x
    value: -0.06791833
    objectReference: {fileID: 0}
  - target: {fileID: 0}
    propertyPath: m_HumanDescription.m_Skeleton.Array.data[9].m_Position.y
    value: -0.039058343
    objectReference: {fileID: 0}
  - target: {fileID: 0}
    propertyPath: m_HumanDescription.m_Skeleton.Array.data[9].m_Position.z
    value: -0.013593665
    objectReference: {fileID: 0}
  - target: {fileID: 0}
    propertyPath: m_HumanDescription.m_Skeleton.Array.data[9].m_Rotation.x
    value: 0.016720954
    objectReference: {fileID: 0}
  - target: {fileID: 0}
    propertyPath: m_HumanDescription.m_Skeleton.Array.data[9].m_Rotation.y
    value: -0.020010091
    objectReference: {fileID: 0}
  - target: {fileID: 0}
    propertyPath: m_HumanDescription.m_Skeleton.Array.data[9].m_Rotation.z
    value: 0.12269747
    objectReference: {fileID: 0}
  - target: {fileID: 0}
    propertyPath: m_HumanDescription.m_Skeleton.Array.data[9].m_Rotation.w
    value: 0.99210143
    objectReference: {fileID: 0}
  - target: {fileID: 0}
    propertyPath: m_HumanDescription.m_Skeleton.Array.data[9].m_Scale.x
    value: 1
    objectReference: {fileID: 0}
  - target: {fileID: 0}
    propertyPath: m_HumanDescription.m_Skeleton.Array.data[9].m_Scale.y
    value: 1
    objectReference: {fileID: 0}
  - target: {fileID: 0}
    propertyPath: m_HumanDescription.m_Skeleton.Array.data[9].m_Scale.z
    value: 1
    objectReference: {fileID: 0}
  - target: {fileID: 0}
    propertyPath: m_HumanDescription.m_Skeleton.Array.data[10].m_Name
    value: joint_Left_LowerArm
    objectReference: {fileID: 0}
  - target: {fileID: 0}
    propertyPath: m_HumanDescription.m_Skeleton.Array.data[10].m_ParentName
    value: joint_Left_UpperArm
    objectReference: {fileID: 0}
  - target: {fileID: 0}
    propertyPath: m_HumanDescription.m_Skeleton.Array.data[10].m_Position.x
    value: -0.14845048
    objectReference: {fileID: 0}
  - target: {fileID: 0}
    propertyPath: m_HumanDescription.m_Skeleton.Array.data[10].m_Position.y
    value: -0.0035557842
    objectReference: {fileID: 0}
  - target: {fileID: 0}
    propertyPath: m_HumanDescription.m_Skeleton.Array.data[10].m_Position.z
    value: -0.0037782788
    objectReference: {fileID: 0}
  - target: {fileID: 0}
    propertyPath: m_HumanDescription.m_Skeleton.Array.data[10].m_Rotation.x
    value: -0.005908085
    objectReference: {fileID: 0}
  - target: {fileID: 0}
    propertyPath: m_HumanDescription.m_Skeleton.Array.data[10].m_Rotation.y
    value: -0.12397785
    objectReference: {fileID: 0}
  - target: {fileID: 0}
    propertyPath: m_HumanDescription.m_Skeleton.Array.data[10].m_Rotation.z
    value: 0.014053161
    objectReference: {fileID: 0}
  - target: {fileID: 0}
    propertyPath: m_HumanDescription.m_Skeleton.Array.data[10].m_Rotation.w
    value: 0.9921679
    objectReference: {fileID: 0}
  - target: {fileID: 0}
    propertyPath: m_HumanDescription.m_Skeleton.Array.data[10].m_Scale.x
    value: 1
    objectReference: {fileID: 0}
  - target: {fileID: 0}
    propertyPath: m_HumanDescription.m_Skeleton.Array.data[10].m_Scale.y
    value: 1
    objectReference: {fileID: 0}
  - target: {fileID: 0}
    propertyPath: m_HumanDescription.m_Skeleton.Array.data[10].m_Scale.z
    value: 1
    objectReference: {fileID: 0}
  - target: {fileID: 0}
    propertyPath: m_HumanDescription.m_Skeleton.Array.data[11].m_Name
    value: joint_Left_Hand
    objectReference: {fileID: 0}
  - target: {fileID: 0}
    propertyPath: m_HumanDescription.m_Skeleton.Array.data[11].m_ParentName
    value: joint_Left_LowerArm
    objectReference: {fileID: 0}
  - target: {fileID: 0}
    propertyPath: m_HumanDescription.m_Skeleton.Array.data[11].m_Position.x
    value: -0.096617185
    objectReference: {fileID: 0}
  - target: {fileID: 0}
    propertyPath: m_HumanDescription.m_Skeleton.Array.data[11].m_Position.y
    value: 0.0056718765
    objectReference: {fileID: 0}
  - target: {fileID: 0}
    propertyPath: m_HumanDescription.m_Skeleton.Array.data[11].m_Position.z
    value: 0.028829532
    objectReference: {fileID: 0}
  - target: {fileID: 0}
    propertyPath: m_HumanDescription.m_Skeleton.Array.data[11].m_Rotation.x
    value: 0
    objectReference: {fileID: 0}
  - target: {fileID: 0}
    propertyPath: m_HumanDescription.m_Skeleton.Array.data[11].m_Rotation.y
    value: -0
    objectReference: {fileID: 0}
  - target: {fileID: 0}
    propertyPath: m_HumanDescription.m_Skeleton.Array.data[11].m_Rotation.z
    value: -0.40551347
    objectReference: {fileID: 0}
  - target: {fileID: 0}
    propertyPath: m_HumanDescription.m_Skeleton.Array.data[11].m_Rotation.w
    value: 0.9140891
    objectReference: {fileID: 0}
  - target: {fileID: 0}
    propertyPath: m_HumanDescription.m_Skeleton.Array.data[11].m_Scale.x
    value: 1
    objectReference: {fileID: 0}
  - target: {fileID: 0}
    propertyPath: m_HumanDescription.m_Skeleton.Array.data[11].m_Scale.y
    value: 1
    objectReference: {fileID: 0}
  - target: {fileID: 0}
    propertyPath: m_HumanDescription.m_Skeleton.Array.data[11].m_Scale.z
    value: 1
    objectReference: {fileID: 0}
  - target: {fileID: 0}
    propertyPath: m_HumanDescription.m_Skeleton.Array.data[12].m_Name
    value: joint_Left_Grip
    objectReference: {fileID: 0}
  - target: {fileID: 0}
    propertyPath: m_HumanDescription.m_Skeleton.Array.data[12].m_ParentName
    value: joint_Left_Hand
    objectReference: {fileID: 0}
  - target: {fileID: 0}
    propertyPath: m_HumanDescription.m_Skeleton.Array.data[12].m_Position.x
    value: -0.02315511
    objectReference: {fileID: 0}
  - target: {fileID: 0}
    propertyPath: m_HumanDescription.m_Skeleton.Array.data[12].m_Position.y
    value: -0.02793172
    objectReference: {fileID: 0}
  - target: {fileID: 0}
    propertyPath: m_HumanDescription.m_Skeleton.Array.data[12].m_Position.z
    value: 0.01897569
    objectReference: {fileID: 0}
  - target: {fileID: 0}
    propertyPath: m_HumanDescription.m_Skeleton.Array.data[12].m_Rotation.x
    value: 0
    objectReference: {fileID: 0}
  - target: {fileID: 0}
    propertyPath: m_HumanDescription.m_Skeleton.Array.data[12].m_Rotation.y
    value: 0
    objectReference: {fileID: 0}
  - target: {fileID: 0}
    propertyPath: m_HumanDescription.m_Skeleton.Array.data[12].m_Rotation.z
    value: 3.4139358e-15
    objectReference: {fileID: 0}
  - target: {fileID: 0}
    propertyPath: m_HumanDescription.m_Skeleton.Array.data[12].m_Rotation.w
    value: 1
    objectReference: {fileID: 0}
  - target: {fileID: 0}
    propertyPath: m_HumanDescription.m_Skeleton.Array.data[12].m_Scale.x
    value: 1
    objectReference: {fileID: 0}
  - target: {fileID: 0}
    propertyPath: m_HumanDescription.m_Skeleton.Array.data[12].m_Scale.y
    value: 1
    objectReference: {fileID: 0}
  - target: {fileID: 0}
    propertyPath: m_HumanDescription.m_Skeleton.Array.data[12].m_Scale.z
    value: 1
    objectReference: {fileID: 0}
  - target: {fileID: 0}
    propertyPath: m_HumanDescription.m_Skeleton.Array.data[13].m_Name
    value: joint_Neck
    objectReference: {fileID: 0}
  - target: {fileID: 0}
    propertyPath: m_HumanDescription.m_Skeleton.Array.data[13].m_ParentName
    value: joint_Chest
    objectReference: {fileID: 0}
  - target: {fileID: 0}
    propertyPath: m_HumanDescription.m_Skeleton.Array.data[13].m_Position.x
    value: -0.09162409
    objectReference: {fileID: 0}
  - target: {fileID: 0}
    propertyPath: m_HumanDescription.m_Skeleton.Array.data[13].m_Position.y
    value: 0
    objectReference: {fileID: 0}
  - target: {fileID: 0}
    propertyPath: m_HumanDescription.m_Skeleton.Array.data[13].m_Position.z
    value: -0.021324
    objectReference: {fileID: 0}
  - target: {fileID: 0}
    propertyPath: m_HumanDescription.m_Skeleton.Array.data[13].m_Rotation.x
    value: 0
    objectReference: {fileID: 0}
  - target: {fileID: 0}
    propertyPath: m_HumanDescription.m_Skeleton.Array.data[13].m_Rotation.y
    value: -0
    objectReference: {fileID: 0}
  - target: {fileID: 0}
    propertyPath: m_HumanDescription.m_Skeleton.Array.data[13].m_Rotation.z
    value: -0
    objectReference: {fileID: 0}
  - target: {fileID: 0}
    propertyPath: m_HumanDescription.m_Skeleton.Array.data[13].m_Rotation.w
    value: 1
    objectReference: {fileID: 0}
  - target: {fileID: 0}
    propertyPath: m_HumanDescription.m_Skeleton.Array.data[13].m_Scale.x
    value: 1
    objectReference: {fileID: 0}
  - target: {fileID: 0}
    propertyPath: m_HumanDescription.m_Skeleton.Array.data[13].m_Scale.y
    value: 1
    objectReference: {fileID: 0}
  - target: {fileID: 0}
    propertyPath: m_HumanDescription.m_Skeleton.Array.data[13].m_Scale.z
    value: 1
    objectReference: {fileID: 0}
  - target: {fileID: 0}
    propertyPath: m_HumanDescription.m_Skeleton.Array.data[14].m_Name
    value: joint_Head
    objectReference: {fileID: 0}
  - target: {fileID: 0}
    propertyPath: m_HumanDescription.m_Skeleton.Array.data[14].m_ParentName
    value: joint_Neck
    objectReference: {fileID: 0}
  - target: {fileID: 0}
    propertyPath: m_HumanDescription.m_Skeleton.Array.data[14].m_Position.x
    value: -0.05837591
    objectReference: {fileID: 0}
  - target: {fileID: 0}
    propertyPath: m_HumanDescription.m_Skeleton.Array.data[14].m_Position.y
    value: 0
    objectReference: {fileID: 0}
  - target: {fileID: 0}
    propertyPath: m_HumanDescription.m_Skeleton.Array.data[14].m_Position.z
    value: 0.0095572295
    objectReference: {fileID: 0}
  - target: {fileID: 0}
    propertyPath: m_HumanDescription.m_Skeleton.Array.data[14].m_Rotation.x
    value: 0
    objectReference: {fileID: 0}
  - target: {fileID: 0}
    propertyPath: m_HumanDescription.m_Skeleton.Array.data[14].m_Rotation.y
    value: 0
    objectReference: {fileID: 0}
  - target: {fileID: 0}
    propertyPath: m_HumanDescription.m_Skeleton.Array.data[14].m_Rotation.z
    value: 0.7071068
    objectReference: {fileID: 0}
  - target: {fileID: 0}
    propertyPath: m_HumanDescription.m_Skeleton.Array.data[14].m_Rotation.w
    value: 0.7071068
    objectReference: {fileID: 0}
  - target: {fileID: 0}
    propertyPath: m_HumanDescription.m_Skeleton.Array.data[14].m_Scale.x
    value: 1
    objectReference: {fileID: 0}
  - target: {fileID: 0}
    propertyPath: m_HumanDescription.m_Skeleton.Array.data[14].m_Scale.y
    value: 1
    objectReference: {fileID: 0}
  - target: {fileID: 0}
    propertyPath: m_HumanDescription.m_Skeleton.Array.data[14].m_Scale.z
    value: 1
    objectReference: {fileID: 0}
  - target: {fileID: 0}
    propertyPath: m_HumanDescription.m_Skeleton.Array.data[15].m_Name
    value: joint_Right_Shoulder
    objectReference: {fileID: 0}
  - target: {fileID: 0}
    propertyPath: m_HumanDescription.m_Skeleton.Array.data[15].m_ParentName
    value: joint_Chest
    objectReference: {fileID: 0}
  - target: {fileID: 0}
    propertyPath: m_HumanDescription.m_Skeleton.Array.data[15].m_Position.x
    value: -0.033815
    objectReference: {fileID: 0}
  - target: {fileID: 0}
    propertyPath: m_HumanDescription.m_Skeleton.Array.data[15].m_Position.y
    value: 0.0933096
    objectReference: {fileID: 0}
  - target: {fileID: 0}
    propertyPath: m_HumanDescription.m_Skeleton.Array.data[15].m_Position.z
    value: -0.011766796
    objectReference: {fileID: 0}
  - target: {fileID: 0}
    propertyPath: m_HumanDescription.m_Skeleton.Array.data[15].m_Rotation.x
    value: 0.627692
    objectReference: {fileID: 0}
  - target: {fileID: 0}
    propertyPath: m_HumanDescription.m_Skeleton.Array.data[15].m_Rotation.y
    value: 0.77758735
    objectReference: {fileID: 0}
  - target: {fileID: 0}
    propertyPath: m_HumanDescription.m_Skeleton.Array.data[15].m_Rotation.z
    value: 0.026084585
    objectReference: {fileID: 0}
  - target: {fileID: 0}
    propertyPath: m_HumanDescription.m_Skeleton.Array.data[15].m_Rotation.w
    value: -0.026084559
    objectReference: {fileID: 0}
  - target: {fileID: 0}
    propertyPath: m_HumanDescription.m_Skeleton.Array.data[15].m_Scale.x
    value: 1
    objectReference: {fileID: 0}
  - target: {fileID: 0}
    propertyPath: m_HumanDescription.m_Skeleton.Array.data[15].m_Scale.y
    value: 1
    objectReference: {fileID: 0}
  - target: {fileID: 0}
    propertyPath: m_HumanDescription.m_Skeleton.Array.data[15].m_Scale.z
    value: 1
    objectReference: {fileID: 0}
  - target: {fileID: 0}
    propertyPath: m_HumanDescription.m_Skeleton.Array.data[16].m_Name
    value: joint_Right_UpperArm
    objectReference: {fileID: 0}
  - target: {fileID: 0}
    propertyPath: m_HumanDescription.m_Skeleton.Array.data[16].m_ParentName
    value: joint_Right_Shoulder
    objectReference: {fileID: 0}
  - target: {fileID: 0}
    propertyPath: m_HumanDescription.m_Skeleton.Array.data[16].m_Position.x
    value: 0.0679184
    objectReference: {fileID: 0}
  - target: {fileID: 0}
    propertyPath: m_HumanDescription.m_Skeleton.Array.data[16].m_Position.y
    value: 0.039058
    objectReference: {fileID: 0}
  - target: {fileID: 0}
    propertyPath: m_HumanDescription.m_Skeleton.Array.data[16].m_Position.z
    value: 0.013593599
    objectReference: {fileID: 0}
  - target: {fileID: 0}
    propertyPath: m_HumanDescription.m_Skeleton.Array.data[16].m_Rotation.x
    value: 0.016720837
    objectReference: {fileID: 0}
  - target: {fileID: 0}
    propertyPath: m_HumanDescription.m_Skeleton.Array.data[16].m_Rotation.y
    value: -0.02000944
    objectReference: {fileID: 0}
  - target: {fileID: 0}
    propertyPath: m_HumanDescription.m_Skeleton.Array.data[16].m_Rotation.z
    value: 0.12269415
    objectReference: {fileID: 0}
  - target: {fileID: 0}
    propertyPath: m_HumanDescription.m_Skeleton.Array.data[16].m_Rotation.w
    value: 0.9921019
    objectReference: {fileID: 0}
  - target: {fileID: 0}
    propertyPath: m_HumanDescription.m_Skeleton.Array.data[16].m_Scale.x
    value: 1
    objectReference: {fileID: 0}
  - target: {fileID: 0}
    propertyPath: m_HumanDescription.m_Skeleton.Array.data[16].m_Scale.y
    value: 1
    objectReference: {fileID: 0}
  - target: {fileID: 0}
    propertyPath: m_HumanDescription.m_Skeleton.Array.data[16].m_Scale.z
    value: 1
    objectReference: {fileID: 0}
  - target: {fileID: 0}
    propertyPath: m_HumanDescription.m_Skeleton.Array.data[17].m_Name
    value: joint_Right_LowerArm
    objectReference: {fileID: 0}
  - target: {fileID: 0}
    propertyPath: m_HumanDescription.m_Skeleton.Array.data[17].m_ParentName
    value: joint_Right_UpperArm
    objectReference: {fileID: 0}
  - target: {fileID: 0}
    propertyPath: m_HumanDescription.m_Skeleton.Array.data[17].m_Position.x
    value: 0.1484501
    objectReference: {fileID: 0}
  - target: {fileID: 0}
    propertyPath: m_HumanDescription.m_Skeleton.Array.data[17].m_Position.y
    value: 0.0035559002
    objectReference: {fileID: 0}
  - target: {fileID: 0}
    propertyPath: m_HumanDescription.m_Skeleton.Array.data[17].m_Position.z
    value: 0.0037783
    objectReference: {fileID: 0}
  - target: {fileID: 0}
    propertyPath: m_HumanDescription.m_Skeleton.Array.data[17].m_Rotation.x
    value: -0.005907859
    objectReference: {fileID: 0}
  - target: {fileID: 0}
    propertyPath: m_HumanDescription.m_Skeleton.Array.data[17].m_Rotation.y
    value: -0.1239768
    objectReference: {fileID: 0}
  - target: {fileID: 0}
    propertyPath: m_HumanDescription.m_Skeleton.Array.data[17].m_Rotation.z
    value: 0.014054739
    objectReference: {fileID: 0}
  - target: {fileID: 0}
    propertyPath: m_HumanDescription.m_Skeleton.Array.data[17].m_Rotation.w
    value: 0.992168
    objectReference: {fileID: 0}
  - target: {fileID: 0}
    propertyPath: m_HumanDescription.m_Skeleton.Array.data[17].m_Scale.x
    value: 1
    objectReference: {fileID: 0}
  - target: {fileID: 0}
    propertyPath: m_HumanDescription.m_Skeleton.Array.data[17].m_Scale.y
    value: 1
    objectReference: {fileID: 0}
  - target: {fileID: 0}
    propertyPath: m_HumanDescription.m_Skeleton.Array.data[17].m_Scale.z
    value: 1
    objectReference: {fileID: 0}
  - target: {fileID: 0}
    propertyPath: m_HumanDescription.m_Skeleton.Array.data[18].m_Name
    value: joint_Right_Hand
    objectReference: {fileID: 0}
  - target: {fileID: 0}
    propertyPath: m_HumanDescription.m_Skeleton.Array.data[18].m_ParentName
    value: joint_Right_LowerArm
    objectReference: {fileID: 0}
  - target: {fileID: 0}
    propertyPath: m_HumanDescription.m_Skeleton.Array.data[18].m_Position.x
    value: 0.09661781
    objectReference: {fileID: 0}
  - target: {fileID: 0}
    propertyPath: m_HumanDescription.m_Skeleton.Array.data[18].m_Position.y
    value: -0.0056721848
    objectReference: {fileID: 0}
  - target: {fileID: 0}
    propertyPath: m_HumanDescription.m_Skeleton.Array.data[18].m_Position.z
    value: -0.0288295
    objectReference: {fileID: 0}
  - target: {fileID: 0}
    propertyPath: m_HumanDescription.m_Skeleton.Array.data[18].m_Rotation.x
    value: 1.2037072e-35
    objectReference: {fileID: 0}
  - target: {fileID: 0}
    propertyPath: m_HumanDescription.m_Skeleton.Array.data[18].m_Rotation.y
    value: 4.5289234e-17
    objectReference: {fileID: 0}
  - target: {fileID: 0}
    propertyPath: m_HumanDescription.m_Skeleton.Array.data[18].m_Rotation.z
    value: -0.001281231
    objectReference: {fileID: 0}
  - target: {fileID: 0}
    propertyPath: m_HumanDescription.m_Skeleton.Array.data[18].m_Rotation.w
    value: 0.99999917
    objectReference: {fileID: 0}
  - target: {fileID: 0}
    propertyPath: m_HumanDescription.m_Skeleton.Array.data[18].m_Scale.x
    value: 1
    objectReference: {fileID: 0}
  - target: {fileID: 0}
    propertyPath: m_HumanDescription.m_Skeleton.Array.data[18].m_Scale.y
    value: 1
    objectReference: {fileID: 0}
  - target: {fileID: 0}
    propertyPath: m_HumanDescription.m_Skeleton.Array.data[18].m_Scale.z
    value: 1
    objectReference: {fileID: 0}
  - target: {fileID: 0}
    propertyPath: m_HumanDescription.m_Skeleton.Array.data[19].m_Name
    value: joint_Right_Grip
    objectReference: {fileID: 0}
  - target: {fileID: 0}
    propertyPath: m_HumanDescription.m_Skeleton.Array.data[19].m_ParentName
    value: joint_Right_Hand
    objectReference: {fileID: 0}
  - target: {fileID: 0}
    propertyPath: m_HumanDescription.m_Skeleton.Array.data[19].m_Position.x
    value: 0.036242973
    objectReference: {fileID: 0}
  - target: {fileID: 0}
    propertyPath: m_HumanDescription.m_Skeleton.Array.data[19].m_Position.y
    value: 0.0016725549
    objectReference: {fileID: 0}
  - target: {fileID: 0}
    propertyPath: m_HumanDescription.m_Skeleton.Array.data[19].m_Position.z
    value: -0.0189757
    objectReference: {fileID: 0}
  - target: {fileID: 0}
    propertyPath: m_HumanDescription.m_Skeleton.Array.data[19].m_Rotation.x
    value: 0.0000000074494806
    objectReference: {fileID: 0}
  - target: {fileID: 0}
    propertyPath: m_HumanDescription.m_Skeleton.Array.data[19].m_Rotation.y
    value: 1.280467e-10
    objectReference: {fileID: 0}
  - target: {fileID: 0}
    propertyPath: m_HumanDescription.m_Skeleton.Array.data[19].m_Rotation.z
    value: 0.017186131
    objectReference: {fileID: 0}
  - target: {fileID: 0}
    propertyPath: m_HumanDescription.m_Skeleton.Array.data[19].m_Rotation.w
    value: 0.99985236
    objectReference: {fileID: 0}
  - target: {fileID: 0}
    propertyPath: m_HumanDescription.m_Skeleton.Array.data[19].m_Scale.x
    value: 1
    objectReference: {fileID: 0}
  - target: {fileID: 0}
    propertyPath: m_HumanDescription.m_Skeleton.Array.data[19].m_Scale.y
    value: 1
    objectReference: {fileID: 0}
  - target: {fileID: 0}
    propertyPath: m_HumanDescription.m_Skeleton.Array.data[19].m_Scale.z
    value: 1
    objectReference: {fileID: 0}
  - target: {fileID: 0}
    propertyPath: m_HumanDescription.m_Skeleton.Array.data[20].m_Name
    value: joint_Left_UpperLeg
    objectReference: {fileID: 0}
  - target: {fileID: 0}
    propertyPath: m_HumanDescription.m_Skeleton.Array.data[20].m_ParentName
    value: joint_Hips
    objectReference: {fileID: 0}
  - target: {fileID: 0}
    propertyPath: m_HumanDescription.m_Skeleton.Array.data[20].m_Position.x
    value: 0.029760411
    objectReference: {fileID: 0}
  - target: {fileID: 0}
    propertyPath: m_HumanDescription.m_Skeleton.Array.data[20].m_Position.y
    value: -0.066034995
    objectReference: {fileID: 0}
  - target: {fileID: 0}
    propertyPath: m_HumanDescription.m_Skeleton.Array.data[20].m_Position.z
    value: -0.0019373544
    objectReference: {fileID: 0}
  - target: {fileID: 0}
    propertyPath: m_HumanDescription.m_Skeleton.Array.data[20].m_Rotation.x
    value: 0
    objectReference: {fileID: 0}
  - target: {fileID: 0}
    propertyPath: m_HumanDescription.m_Skeleton.Array.data[20].m_Rotation.y
    value: 0
    objectReference: {fileID: 0}
  - target: {fileID: 0}
    propertyPath: m_HumanDescription.m_Skeleton.Array.data[20].m_Rotation.z
    value: 0.99697536
    objectReference: {fileID: 0}
  - target: {fileID: 0}
    propertyPath: m_HumanDescription.m_Skeleton.Array.data[20].m_Rotation.w
    value: 0.077718966
    objectReference: {fileID: 0}
  - target: {fileID: 0}
    propertyPath: m_HumanDescription.m_Skeleton.Array.data[20].m_Scale.x
    value: 1
    objectReference: {fileID: 0}
  - target: {fileID: 0}
    propertyPath: m_HumanDescription.m_Skeleton.Array.data[20].m_Scale.y
    value: 1
    objectReference: {fileID: 0}
  - target: {fileID: 0}
    propertyPath: m_HumanDescription.m_Skeleton.Array.data[20].m_Scale.z
    value: 1
    objectReference: {fileID: 0}
  - target: {fileID: 0}
    propertyPath: m_HumanDescription.m_Skeleton.Array.data[21].m_Name
    value: joint_Left_LowerLeg
    objectReference: {fileID: 0}
  - target: {fileID: 0}
    propertyPath: m_HumanDescription.m_Skeleton.Array.data[21].m_ParentName
    value: joint_Left_UpperLeg
    objectReference: {fileID: 0}
  - target: {fileID: 0}
    propertyPath: m_HumanDescription.m_Skeleton.Array.data[21].m_Position.x
    value: -0.11342895
    objectReference: {fileID: 0}
  - target: {fileID: 0}
    propertyPath: m_HumanDescription.m_Skeleton.Array.data[21].m_Position.y
    value: -0.010257812
    objectReference: {fileID: 0}
  - target: {fileID: 0}
    propertyPath: m_HumanDescription.m_Skeleton.Array.data[21].m_Position.z
    value: 0.0050353557
    objectReference: {fileID: 0}
  - target: {fileID: 0}
    propertyPath: m_HumanDescription.m_Skeleton.Array.data[21].m_Rotation.x
    value: 0.99139893
    objectReference: {fileID: 0}
  - target: {fileID: 0}
    propertyPath: m_HumanDescription.m_Skeleton.Array.data[21].m_Rotation.y
    value: 0.13087486
    objectReference: {fileID: 0}
  - target: {fileID: 0}
    propertyPath: m_HumanDescription.m_Skeleton.Array.data[21].m_Rotation.z
    value: 8.013774e-18
    objectReference: {fileID: 0}
  - target: {fileID: 0}
    propertyPath: m_HumanDescription.m_Skeleton.Array.data[21].m_Rotation.w
    value: 6.070568e-17
    objectReference: {fileID: 0}
  - target: {fileID: 0}
    propertyPath: m_HumanDescription.m_Skeleton.Array.data[21].m_Scale.x
    value: 1
    objectReference: {fileID: 0}
  - target: {fileID: 0}
    propertyPath: m_HumanDescription.m_Skeleton.Array.data[21].m_Scale.y
    value: 1
    objectReference: {fileID: 0}
  - target: {fileID: 0}
    propertyPath: m_HumanDescription.m_Skeleton.Array.data[21].m_Scale.z
    value: 1
    objectReference: {fileID: 0}
  - target: {fileID: 0}
    propertyPath: m_HumanDescription.m_Skeleton.Array.data[22].m_Name
    value: joint_Left_Foot
    objectReference: {fileID: 0}
  - target: {fileID: 0}
    propertyPath: m_HumanDescription.m_Skeleton.Array.data[22].m_ParentName
    value: joint_Left_LowerLeg
    objectReference: {fileID: 0}
  - target: {fileID: 0}
    propertyPath: m_HumanDescription.m_Skeleton.Array.data[22].m_Position.x
    value: -0.076156616
    objectReference: {fileID: 0}
  - target: {fileID: 0}
    propertyPath: m_HumanDescription.m_Skeleton.Array.data[22].m_Position.y
    value: -0.0038902988
    objectReference: {fileID: 0}
  - target: {fileID: 0}
    propertyPath: m_HumanDescription.m_Skeleton.Array.data[22].m_Position.z
    value: 0.020681113
    objectReference: {fileID: 0}
  - target: {fileID: 0}
    propertyPath: m_HumanDescription.m_Skeleton.Array.data[22].m_Rotation.x
    value: 0.93718445
    objectReference: {fileID: 0}
  - target: {fileID: 0}
    propertyPath: m_HumanDescription.m_Skeleton.Array.data[22].m_Rotation.y
    value: 0.34789404
    objectReference: {fileID: 0}
  - target: {fileID: 0}
    propertyPath: m_HumanDescription.m_Skeleton.Array.data[22].m_Rotation.z
    value: 0.006295605
    objectReference: {fileID: 0}
  - target: {fileID: 0}
    propertyPath: m_HumanDescription.m_Skeleton.Array.data[22].m_Rotation.w
    value: -0.024806866
    objectReference: {fileID: 0}
  - target: {fileID: 0}
    propertyPath: m_HumanDescription.m_Skeleton.Array.data[22].m_Scale.x
    value: 1
    objectReference: {fileID: 0}
  - target: {fileID: 0}
    propertyPath: m_HumanDescription.m_Skeleton.Array.data[22].m_Scale.y
    value: 1
    objectReference: {fileID: 0}
  - target: {fileID: 0}
    propertyPath: m_HumanDescription.m_Skeleton.Array.data[22].m_Scale.z
    value: 1
    objectReference: {fileID: 0}
  - target: {fileID: 0}
    propertyPath: m_HumanDescription.m_Skeleton.Array.data[23].m_Name
    value: joint_Left_Toes
    objectReference: {fileID: 0}
  - target: {fileID: 0}
    propertyPath: m_HumanDescription.m_Skeleton.Array.data[23].m_ParentName
    value: joint_Left_Foot
    objectReference: {fileID: 0}
  - target: {fileID: 0}
    propertyPath: m_HumanDescription.m_Skeleton.Array.data[23].m_Position.x
    value: -0.045123152
    objectReference: {fileID: 0}
  - target: {fileID: 0}
    propertyPath: m_HumanDescription.m_Skeleton.Array.data[23].m_Position.y
    value: -3.7248328e-18
    objectReference: {fileID: 0}
  - target: {fileID: 0}
    propertyPath: m_HumanDescription.m_Skeleton.Array.data[23].m_Position.z
    value: 0.055679854
    objectReference: {fileID: 0}
  - target: {fileID: 0}
    propertyPath: m_HumanDescription.m_Skeleton.Array.data[23].m_Rotation.x
    value: 0
    objectReference: {fileID: 0}
  - target: {fileID: 0}
    propertyPath: m_HumanDescription.m_Skeleton.Array.data[23].m_Rotation.y
    value: -0
    objectReference: {fileID: 0}
  - target: {fileID: 0}
    propertyPath: m_HumanDescription.m_Skeleton.Array.data[23].m_Rotation.z
    value: -0.4647982
    objectReference: {fileID: 0}
  - target: {fileID: 0}
    propertyPath: m_HumanDescription.m_Skeleton.Array.data[23].m_Rotation.w
    value: 0.8854167
    objectReference: {fileID: 0}
  - target: {fileID: 0}
    propertyPath: m_HumanDescription.m_Skeleton.Array.data[23].m_Scale.x
    value: 1
    objectReference: {fileID: 0}
  - target: {fileID: 0}
    propertyPath: m_HumanDescription.m_Skeleton.Array.data[23].m_Scale.y
    value: 1
    objectReference: {fileID: 0}
  - target: {fileID: 0}
    propertyPath: m_HumanDescription.m_Skeleton.Array.data[23].m_Scale.z
    value: 1
    objectReference: {fileID: 0}
  - target: {fileID: 0}
    propertyPath: m_HumanDescription.m_Skeleton.Array.data[24].m_Name
    value: joint_Right_UpperLeg
    objectReference: {fileID: 0}
  - target: {fileID: 0}
    propertyPath: m_HumanDescription.m_Skeleton.Array.data[24].m_ParentName
    value: joint_Hips
    objectReference: {fileID: 0}
  - target: {fileID: 0}
    propertyPath: m_HumanDescription.m_Skeleton.Array.data[24].m_Position.x
    value: 0.02976
    objectReference: {fileID: 0}
  - target: {fileID: 0}
    propertyPath: m_HumanDescription.m_Skeleton.Array.data[24].m_Position.y
    value: 0.066034995
    objectReference: {fileID: 0}
  - target: {fileID: 0}
    propertyPath: m_HumanDescription.m_Skeleton.Array.data[24].m_Position.z
    value: -0.0019373245
    objectReference: {fileID: 0}
  - target: {fileID: 0}
    propertyPath: m_HumanDescription.m_Skeleton.Array.data[24].m_Rotation.x
    value: 0.99697536
    objectReference: {fileID: 0}
  - target: {fileID: 0}
    propertyPath: m_HumanDescription.m_Skeleton.Array.data[24].m_Rotation.y
    value: 0.077718966
    objectReference: {fileID: 0}
  - target: {fileID: 0}
    propertyPath: m_HumanDescription.m_Skeleton.Array.data[24].m_Rotation.z
    value: -4.7589144e-18
    objectReference: {fileID: 0}
  - target: {fileID: 0}
    propertyPath: m_HumanDescription.m_Skeleton.Array.data[24].m_Rotation.w
    value: -6.104714e-17
    objectReference: {fileID: 0}
  - target: {fileID: 0}
    propertyPath: m_HumanDescription.m_Skeleton.Array.data[24].m_Scale.x
    value: 1
    objectReference: {fileID: 0}
  - target: {fileID: 0}
    propertyPath: m_HumanDescription.m_Skeleton.Array.data[24].m_Scale.y
    value: 1
    objectReference: {fileID: 0}
  - target: {fileID: 0}
    propertyPath: m_HumanDescription.m_Skeleton.Array.data[24].m_Scale.z
    value: 1
    objectReference: {fileID: 0}
  - target: {fileID: 0}
    propertyPath: m_HumanDescription.m_Skeleton.Array.data[25].m_Name
    value: joint_Right_LowerLeg
    objectReference: {fileID: 0}
  - target: {fileID: 0}
    propertyPath: m_HumanDescription.m_Skeleton.Array.data[25].m_ParentName
    value: joint_Right_UpperLeg
    objectReference: {fileID: 0}
  - target: {fileID: 0}
    propertyPath: m_HumanDescription.m_Skeleton.Array.data[25].m_Position.x
    value: 0.11342963
    objectReference: {fileID: 0}
  - target: {fileID: 0}
    propertyPath: m_HumanDescription.m_Skeleton.Array.data[25].m_Position.y
    value: 0.0102579575
    objectReference: {fileID: 0}
  - target: {fileID: 0}
    propertyPath: m_HumanDescription.m_Skeleton.Array.data[25].m_Position.z
    value: -0.0050353003
    objectReference: {fileID: 0}
  - target: {fileID: 0}
    propertyPath: m_HumanDescription.m_Skeleton.Array.data[25].m_Rotation.x
    value: 0.99139893
    objectReference: {fileID: 0}
  - target: {fileID: 0}
    propertyPath: m_HumanDescription.m_Skeleton.Array.data[25].m_Rotation.y
    value: 0.13087486
    objectReference: {fileID: 0}
  - target: {fileID: 0}
    propertyPath: m_HumanDescription.m_Skeleton.Array.data[25].m_Rotation.z
    value: -2.3766798e-17
    objectReference: {fileID: 0}
  - target: {fileID: 0}
    propertyPath: m_HumanDescription.m_Skeleton.Array.data[25].m_Rotation.w
    value: -5.862612e-17
    objectReference: {fileID: 0}
  - target: {fileID: 0}
    propertyPath: m_HumanDescription.m_Skeleton.Array.data[25].m_Scale.x
    value: 1
    objectReference: {fileID: 0}
  - target: {fileID: 0}
    propertyPath: m_HumanDescription.m_Skeleton.Array.data[25].m_Scale.y
    value: 1
    objectReference: {fileID: 0}
  - target: {fileID: 0}
    propertyPath: m_HumanDescription.m_Skeleton.Array.data[25].m_Scale.z
    value: 1
    objectReference: {fileID: 0}
  - target: {fileID: 0}
    propertyPath: m_HumanDescription.m_Skeleton.Array.data[26].m_Name
    value: joint_Right_Foot
    objectReference: {fileID: 0}
  - target: {fileID: 0}
    propertyPath: m_HumanDescription.m_Skeleton.Array.data[26].m_ParentName
    value: joint_Right_LowerLeg
    objectReference: {fileID: 0}
  - target: {fileID: 0}
    propertyPath: m_HumanDescription.m_Skeleton.Array.data[26].m_Position.x
    value: 0.07615638
    objectReference: {fileID: 0}
  - target: {fileID: 0}
    propertyPath: m_HumanDescription.m_Skeleton.Array.data[26].m_Position.y
    value: 0.0038903295
    objectReference: {fileID: 0}
  - target: {fileID: 0}
    propertyPath: m_HumanDescription.m_Skeleton.Array.data[26].m_Position.z
    value: -0.0206811
    objectReference: {fileID: 0}
  - target: {fileID: 0}
    propertyPath: m_HumanDescription.m_Skeleton.Array.data[26].m_Rotation.x
    value: 0.93718445
    objectReference: {fileID: 0}
  - target: {fileID: 0}
    propertyPath: m_HumanDescription.m_Skeleton.Array.data[26].m_Rotation.y
    value: 0.34789404
    objectReference: {fileID: 0}
  - target: {fileID: 0}
    propertyPath: m_HumanDescription.m_Skeleton.Array.data[26].m_Rotation.z
    value: 0.0062956265
    objectReference: {fileID: 0}
  - target: {fileID: 0}
    propertyPath: m_HumanDescription.m_Skeleton.Array.data[26].m_Rotation.w
    value: -0.024806952
    objectReference: {fileID: 0}
  - target: {fileID: 0}
    propertyPath: m_HumanDescription.m_Skeleton.Array.data[26].m_Scale.x
    value: 1
    objectReference: {fileID: 0}
  - target: {fileID: 0}
    propertyPath: m_HumanDescription.m_Skeleton.Array.data[26].m_Scale.y
    value: 1
    objectReference: {fileID: 0}
  - target: {fileID: 0}
    propertyPath: m_HumanDescription.m_Skeleton.Array.data[26].m_Scale.z
    value: 1
    objectReference: {fileID: 0}
  - target: {fileID: 0}
    propertyPath: m_HumanDescription.m_Skeleton.Array.data[27].m_Name
    value: joint_Right_Toes
    objectReference: {fileID: 0}
  - target: {fileID: 0}
    propertyPath: m_HumanDescription.m_Skeleton.Array.data[27].m_ParentName
    value: joint_Right_Foot
    objectReference: {fileID: 0}
  - target: {fileID: 0}
    propertyPath: m_HumanDescription.m_Skeleton.Array.data[27].m_Position.x
    value: 0.045123104
    objectReference: {fileID: 0}
  - target: {fileID: 0}
    propertyPath: m_HumanDescription.m_Skeleton.Array.data[27].m_Position.y
    value: -0.000000056792526
    objectReference: {fileID: 0}
  - target: {fileID: 0}
    propertyPath: m_HumanDescription.m_Skeleton.Array.data[27].m_Position.z
    value: -0.0556799
    objectReference: {fileID: 0}
  - target: {fileID: 0}
    propertyPath: m_HumanDescription.m_Skeleton.Array.data[27].m_Rotation.x
    value: -4.1763228e-32
    objectReference: {fileID: 0}
  - target: {fileID: 0}
    propertyPath: m_HumanDescription.m_Skeleton.Array.data[27].m_Rotation.y
    value: -3.1968723e-16
    objectReference: {fileID: 0}
  - target: {fileID: 0}
    propertyPath: m_HumanDescription.m_Skeleton.Array.data[27].m_Rotation.z
    value: -0.4647982
    objectReference: {fileID: 0}
  - target: {fileID: 0}
    propertyPath: m_HumanDescription.m_Skeleton.Array.data[27].m_Rotation.w
    value: 0.8854167
    objectReference: {fileID: 0}
  - target: {fileID: 0}
    propertyPath: m_HumanDescription.m_Skeleton.Array.data[27].m_Scale.x
    value: 1
    objectReference: {fileID: 0}
  - target: {fileID: 0}
    propertyPath: m_HumanDescription.m_Skeleton.Array.data[27].m_Scale.y
    value: 1
    objectReference: {fileID: 0}
  - target: {fileID: 0}
    propertyPath: m_HumanDescription.m_Skeleton.Array.data[27].m_Scale.z
    value: 1
    objectReference: {fileID: 0}
  - target: {fileID: 0}
    propertyPath: m_HumanDescription.m_ArmTwist
    value: 0.5
    objectReference: {fileID: 0}
  - target: {fileID: 0}
    propertyPath: m_HumanDescription.m_ForeArmTwist
    value: 0.5
    objectReference: {fileID: 0}
  - target: {fileID: 0}
    propertyPath: m_HumanDescription.m_UpperLegTwist
    value: 0.5
    objectReference: {fileID: 0}
  - target: {fileID: 0}
    propertyPath: m_HumanDescription.m_LegTwist
    value: 0.5
    objectReference: {fileID: 0}
  - target: {fileID: 0}
    propertyPath: m_HumanDescription.m_ArmStretch
    value: 0.05
    objectReference: {fileID: 0}
  - target: {fileID: 0}
    propertyPath: m_HumanDescription.m_LegStretch
    value: 0.05
    objectReference: {fileID: 0}
  - target: {fileID: 0}
    propertyPath: m_HumanDescription.m_FeetSpacing
    value: 0
    objectReference: {fileID: 0}
  - target: {fileID: 0}
    propertyPath: m_HumanDescription.m_GlobalScale
    value: 1
    objectReference: {fileID: 0}
  - target: {fileID: 0}
    propertyPath: m_HumanDescription.m_RootMotionBoneName
    value: 
    objectReference: {fileID: 0}
  - target: {fileID: 0}
    propertyPath: m_HumanDescription.m_HasTranslationDoF
    value: 0
    objectReference: {fileID: 0}
  - target: {fileID: 0}
    propertyPath: m_HumanDescription.m_HasExtraRoot
    value: 0
    objectReference: {fileID: 0}
  - target: {fileID: 0}
    propertyPath: m_HumanDescription.m_SkeletonHasParents
    value: 1
    objectReference: {fileID: 0}
  - target: {fileID: 0}
    propertyPath: m_LastHumanDescriptionAvatarSource
    value: 
    objectReference: {fileID: 0}
  - target: {fileID: 0}
    propertyPath: m_AutoGenerateAvatarMappingIfUnspecified
    value: 1
    objectReference: {fileID: 0}
  - target: {fileID: 0}
    propertyPath: m_AnimationType
    value: 0
    objectReference: {fileID: 0}
  - target: {fileID: 0}
    propertyPath: m_HumanoidOversampling
    value: 1
    objectReference: {fileID: 0}
  - target: {fileID: 0}
    propertyPath: m_AvatarSetup
    value: 0
    objectReference: {fileID: 0}
  - target: {fileID: 0}
    propertyPath: m_AddHumanoidExtraRootOnlyWhenUsingAvatar
    value: 1
    objectReference: {fileID: 0}
  - target: {fileID: 0}
    propertyPath: m_AdditionalBone
    value: 0
    objectReference: {fileID: 0}
  - target: {fileID: 0}
    propertyPath: m_UserData
    value: 
    objectReference: {fileID: 0}
  - target: {fileID: 0}
    propertyPath: m_AssetBundleName
    value: 
    objectReference: {fileID: 0}
  - target: {fileID: 0}
    propertyPath: m_AssetBundleVariant
    value: 
    objectReference: {fileID: 0}
  m_ExcludedProperties: []
