%YAML 1.1
%TAG !u! tag:unity3d.com,2011:
--- !u!114 &11400000
MonoBehaviour:
  m_ObjectHideFlags: 0
  m_CorrespondingSourceObject: {fileID: 0}
  m_PrefabInstance: {fileID: 0}
  m_PrefabAsset: {fileID: 0}
  m_GameObject: {fileID: 0}
  m_Enabled: 1
  m_EditorHideFlags: 0
  m_Script: {fileID: 11500000, guid: c5df49d50f11b38419026a32fd3deda4, type: 3}
  m_Name: CHA_SoloColor_00_SO
  m_EditorClassIdentifier: 
  ColorName: Can
  PrimaryColor: {r: 0.44705886, g: 0.59607846, b: 0.7490196, a: 1}
  PatternColor: {r: 1, g: 0, b: 1, a: 1}
  DisplayIcon: {fileID: 0}
