%YAML 1.1
%TAG !u! tag:unity3d.com,2011:
--- !u!1001 &1648099199484759676
PrefabInstance:
  m_ObjectHideFlags: 0
  serializedVersion: 2
  m_Modification:
    m_TransformParent: {fileID: 0}
    m_Modifications:
    - target: {fileID: 3981591663636207139, guid: 1af16de3fb0a5f84ba53dd02eb47c747, type: 3}
      propertyPath: m_RootOrder
      value: 0
      objectReference: {fileID: 0}
    - target: {fileID: 3981591663636207139, guid: 1af16de3fb0a5f84ba53dd02eb47c747, type: 3}
      propertyPath: m_LocalPosition.x
      value: 0
      objectReference: {fileID: 0}
    - target: {fileID: 3981591663636207139, guid: 1af16de3fb0a5f84ba53dd02eb47c747, type: 3}
      propertyPath: m_LocalPosition.y
      value: 0
      objectReference: {fileID: 0}
    - target: {fileID: 3981591663636207139, guid: 1af16de3fb0a5f84ba53dd02eb47c747, type: 3}
      propertyPath: m_LocalPosition.z
      value: 0
      objectReference: {fileID: 0}
    - target: {fileID: 3981591663636207139, guid: 1af16de3fb0a5f84ba53dd02eb47c747, type: 3}
      propertyPath: m_LocalRotation.w
      value: 1
      objectReference: {fileID: 0}
    - target: {fileID: 3981591663636207139, guid: 1af16de3fb0a5f84ba53dd02eb47c747, type: 3}
      propertyPath: m_LocalRotation.x
      value: 0
      objectReference: {fileID: 0}
    - target: {fileID: 3981591663636207139, guid: 1af16de3fb0a5f84ba53dd02eb47c747, type: 3}
      propertyPath: m_LocalRotation.y
      value: 0
      objectReference: {fileID: 0}
    - target: {fileID: 3981591663636207139, guid: 1af16de3fb0a5f84ba53dd02eb47c747, type: 3}
      propertyPath: m_LocalRotation.z
      value: 0
      objectReference: {fileID: 0}
    - target: {fileID: 3981591663636207139, guid: 1af16de3fb0a5f84ba53dd02eb47c747, type: 3}
      propertyPath: m_LocalEulerAnglesHint.x
      value: 0
      objectReference: {fileID: 0}
    - target: {fileID: 3981591663636207139, guid: 1af16de3fb0a5f84ba53dd02eb47c747, type: 3}
      propertyPath: m_LocalEulerAnglesHint.y
      value: 0
      objectReference: {fileID: 0}
    - target: {fileID: 3981591663636207139, guid: 1af16de3fb0a5f84ba53dd02eb47c747, type: 3}
      propertyPath: m_LocalEulerAnglesHint.z
      value: 0
      objectReference: {fileID: 0}
    - target: {fileID: 5551747577878295184, guid: 1af16de3fb0a5f84ba53dd02eb47c747, type: 3}
      propertyPath: m_Name
      value: ENV_Master_01_PB
      objectReference: {fileID: 0}
    m_RemovedComponents: []
  m_SourcePrefab: {fileID: 100100000, guid: 1af16de3fb0a5f84ba53dd02eb47c747, type: 3}
--- !u!4 &1289746256978600168 stripped
Transform:
  m_CorrespondingSourceObject: {fileID: 520482546274561684, guid: 1af16de3fb0a5f84ba53dd02eb47c747, type: 3}
  m_PrefabInstance: {fileID: 1648099199484759676}
  m_PrefabAsset: {fileID: 0}
--- !u!1001 &2036352151773252844
PrefabInstance:
  m_ObjectHideFlags: 0
  serializedVersion: 2
  m_Modification:
    m_TransformParent: {fileID: 5606301593070146777}
    m_Modifications:
    - target: {fileID: -8679921383154817045, guid: 3696b6735ca78a84cabbb602d1bde519, type: 3}
      propertyPath: m_RootOrder
      value: 0
      objectReference: {fileID: 0}
    - target: {fileID: -8679921383154817045, guid: 3696b6735ca78a84cabbb602d1bde519, type: 3}
      propertyPath: m_LocalPosition.x
      value: 0
      objectReference: {fileID: 0}
    - target: {fileID: -8679921383154817045, guid: 3696b6735ca78a84cabbb602d1bde519, type: 3}
      propertyPath: m_LocalPosition.y
      value: 0
      objectReference: {fileID: 0}
    - target: {fileID: -8679921383154817045, guid: 3696b6735ca78a84cabbb602d1bde519, type: 3}
      propertyPath: m_LocalPosition.z
      value: 0
      objectReference: {fileID: 0}
    - target: {fileID: -8679921383154817045, guid: 3696b6735ca78a84cabbb602d1bde519, type: 3}
      propertyPath: m_LocalRotation.w
      value: 1
      objectReference: {fileID: 0}
    - target: {fileID: -8679921383154817045, guid: 3696b6735ca78a84cabbb602d1bde519, type: 3}
      propertyPath: m_LocalRotation.x
      value: 0
      objectReference: {fileID: 0}
    - target: {fileID: -8679921383154817045, guid: 3696b6735ca78a84cabbb602d1bde519, type: 3}
      propertyPath: m_LocalRotation.y
      value: -0
      objectReference: {fileID: 0}
    - target: {fileID: -8679921383154817045, guid: 3696b6735ca78a84cabbb602d1bde519, type: 3}
      propertyPath: m_LocalRotation.z
      value: -0
      objectReference: {fileID: 0}
    - target: {fileID: -8679921383154817045, guid: 3696b6735ca78a84cabbb602d1bde519, type: 3}
      propertyPath: m_LocalEulerAnglesHint.x
      value: 0
      objectReference: {fileID: 0}
    - target: {fileID: -8679921383154817045, guid: 3696b6735ca78a84cabbb602d1bde519, type: 3}
      propertyPath: m_LocalEulerAnglesHint.y
      value: 0
      objectReference: {fileID: 0}
    - target: {fileID: -8679921383154817045, guid: 3696b6735ca78a84cabbb602d1bde519, type: 3}
      propertyPath: m_LocalEulerAnglesHint.z
      value: 0
      objectReference: {fileID: 0}
    - target: {fileID: -7511558181221131132, guid: 3696b6735ca78a84cabbb602d1bde519, type: 3}
      propertyPath: m_CastShadows
      value: 3
      objectReference: {fileID: 0}
    - target: {fileID: -7511558181221131132, guid: 3696b6735ca78a84cabbb602d1bde519, type: 3}
      propertyPath: m_Materials.Array.data[0]
      value: 
      objectReference: {fileID: 2100000, guid: d2aad5b7790f6be43a7bbff80ebbdcd0, type: 2}
    - target: {fileID: 919132149155446097, guid: 3696b6735ca78a84cabbb602d1bde519, type: 3}
      propertyPath: m_Name
      value: ShadowMesh
      objectReference: {fileID: 0}
    m_RemovedComponents: []
  m_SourcePrefab: {fileID: 100100000, guid: 3696b6735ca78a84cabbb602d1bde519, type: 3}
--- !u!1001 &5352296044482425650
PrefabInstance:
  m_ObjectHideFlags: 0
  serializedVersion: 2
  m_Modification:
    m_TransformParent: {fileID: 1289746256978600168}
    m_Modifications:
    - target: {fileID: -8679921383154817045, guid: 3696b6735ca78a84cabbb602d1bde519, type: 3}
      propertyPath: m_RootOrder
      value: 2
      objectReference: {fileID: 0}
    - target: {fileID: -8679921383154817045, guid: 3696b6735ca78a84cabbb602d1bde519, type: 3}
      propertyPath: m_LocalPosition.x
      value: 0
      objectReference: {fileID: 0}
    - target: {fileID: -8679921383154817045, guid: 3696b6735ca78a84cabbb602d1bde519, type: 3}
      propertyPath: m_LocalPosition.y
      value: 0
      objectReference: {fileID: 0}
    - target: {fileID: -8679921383154817045, guid: 3696b6735ca78a84cabbb602d1bde519, type: 3}
      propertyPath: m_LocalPosition.z
      value: 0
      objectReference: {fileID: 0}
    - target: {fileID: -8679921383154817045, guid: 3696b6735ca78a84cabbb602d1bde519, type: 3}
      propertyPath: m_LocalRotation.w
      value: 1
      objectReference: {fileID: 0}
    - target: {fileID: -8679921383154817045, guid: 3696b6735ca78a84cabbb602d1bde519, type: 3}
      propertyPath: m_LocalRotation.x
      value: 0
      objectReference: {fileID: 0}
    - target: {fileID: -8679921383154817045, guid: 3696b6735ca78a84cabbb602d1bde519, type: 3}
      propertyPath: m_LocalRotation.y
      value: -0
      objectReference: {fileID: 0}
    - target: {fileID: -8679921383154817045, guid: 3696b6735ca78a84cabbb602d1bde519, type: 3}
      propertyPath: m_LocalRotation.z
      value: -0
      objectReference: {fileID: 0}
    - target: {fileID: -8679921383154817045, guid: 3696b6735ca78a84cabbb602d1bde519, type: 3}
      propertyPath: m_LocalEulerAnglesHint.x
      value: 0
      objectReference: {fileID: 0}
    - target: {fileID: -8679921383154817045, guid: 3696b6735ca78a84cabbb602d1bde519, type: 3}
      propertyPath: m_LocalEulerAnglesHint.y
      value: 0
      objectReference: {fileID: 0}
    - target: {fileID: -8679921383154817045, guid: 3696b6735ca78a84cabbb602d1bde519, type: 3}
      propertyPath: m_LocalEulerAnglesHint.z
      value: 0
      objectReference: {fileID: 0}
    - target: {fileID: -7511558181221131132, guid: 3696b6735ca78a84cabbb602d1bde519, type: 3}
      propertyPath: m_CastShadows
      value: 0
      objectReference: {fileID: 0}
    - target: {fileID: -7511558181221131132, guid: 3696b6735ca78a84cabbb602d1bde519, type: 3}
      propertyPath: m_Materials.Array.data[0]
      value: 
      objectReference: {fileID: 2100000, guid: d2aad5b7790f6be43a7bbff80ebbdcd0, type: 2}
    - target: {fileID: 919132149155446097, guid: 3696b6735ca78a84cabbb602d1bde519, type: 3}
      propertyPath: m_Name
      value: ENV_Bench_01_MO
      objectReference: {fileID: 0}
    m_RemovedComponents: []
  m_SourcePrefab: {fileID: 100100000, guid: 3696b6735ca78a84cabbb602d1bde519, type: 3}
--- !u!4 &5606301593070146777 stripped
Transform:
  m_CorrespondingSourceObject: {fileID: -8679921383154817045, guid: 3696b6735ca78a84cabbb602d1bde519, type: 3}
  m_PrefabInstance: {fileID: 5352296044482425650}
  m_PrefabAsset: {fileID: 0}
