%YAML 1.1
%TAG !u! tag:unity3d.com,2011:
--- !u!114 &-5774395441451967359
MonoBehaviour:
  m_ObjectHideFlags: 11
  m_CorrespondingSourceObject: {fileID: 0}
  m_PrefabInstance: {fileID: 0}
  m_PrefabAsset: {fileID: 0}
  m_GameObject: {fileID: 0}
  m_Enabled: 1
  m_EditorHideFlags: 0
  m_Script: {fileID: 11500000, guid: d0353a89b1f911e48b9e16bdc9f2e058, type: 3}
  m_Name: 
  m_EditorClassIdentifier: 
  version: 5
--- !u!21 &2100000
Material:
  serializedVersion: 6
  m_ObjectHideFlags: 0
  m_CorrespondingSourceObject: {fileID: 0}
  m_PrefabInstance: {fileID: 0}
  m_PrefabAsset: {fileID: 0}
  m_Name: ENV_Bench_01_MAT
  m_Shader: {fileID: -6465566751694194690, guid: 35de20d1f2de4d04391b975999d4d3df, type: 3}
  m_ShaderKeywords: 
  m_LightmapFlags: 4
  m_EnableInstancingVariants: 0
  m_DoubleSidedGI: 0
  m_CustomRenderQueue: -1
  stringTagMap: {}
  disabledShaderPasses: []
  m_SavedProperties:
    serializedVersion: 3
    m_TexEnvs:
    - Texture2D_F406AA7C:
        m_Texture: {fileID: 2800000, guid: 211497300d75d8e4b9b3e2913a93e908, type: 3}
        m_Scale: {x: 1, y: 1}
        m_Offset: {x: 0, y: 0}
    - _Albedo:
        m_Texture: {fileID: 2800000, guid: 8d2bb5654a93f72478de9aea54d526bc, type: 3}
        m_Scale: {x: 1, y: 1}
        m_Offset: {x: 0, y: 0}
    - _PatternMask:
        m_Texture: {fileID: 0}
        m_Scale: {x: 1, y: 1}
        m_Offset: {x: 0, y: 0}
    - unity_Lightmaps:
        m_Texture: {fileID: 0}
        m_Scale: {x: 1, y: 1}
        m_Offset: {x: 0, y: 0}
    - unity_LightmapsInd:
        m_Texture: {fileID: 0}
        m_Scale: {x: 1, y: 1}
        m_Offset: {x: 0, y: 0}
    - unity_ShadowMasks:
        m_Texture: {fileID: 0}
        m_Scale: {x: 1, y: 1}
        m_Offset: {x: 0, y: 0}
    m_Ints: []
    m_Floats:
    - _Ambience: 0.05
    - _HitStagger: 0
    - _PixelSize: 3
    - _QueueControl: 0
    - _QueueOffset: 0
    - _width: 2
    m_Colors:
    - _BaseColor: {r: 1, g: 1, b: 1, a: 1}
    - _HitColor: {r: 2, g: 0, b: 0, a: 1}
    - _OutlineColor: {r: 0, g: 0, b: 0, a: 0}
    - _PatternColor: {r: 1, g: 0.627451, b: 0, a: 1}
    - _ProfileColor: {r: 0, g: 0.31372547, b: 1, a: 1}
    - _SecondaryColor: {r: 0.03529412, g: 1, b: 0, a: 1}
    - _SpecColor: {r: 0.58797604, g: 0.6886792, b: 0.6635034, a: 1}
  m_BuildTextureStacks: []
