%YAML 1.1
%TAG !u! tag:unity3d.com,2011:
--- !u!1001 &2171598901583685073
PrefabInstance:
  m_ObjectHideFlags: 0
  serializedVersion: 2
  m_Modification:
    m_TransformParent: {fileID: 0}
    m_Modifications:
    - target: {fileID: 3554405624512334024, guid: edb99be64cf0bc64691e837e8023b6ad, type: 3}
      propertyPath: m_Mesh
      value: 
      objectReference: {fileID: -2205873949407349362, guid: 5241af5fbff807741a94b865b4cc162a, type: 3}
    - target: {fileID: 3554405624512334024, guid: edb99be64cf0bc64691e837e8023b6ad, type: 3}
      propertyPath: m_Materials.Array.data[0]
      value: 
      objectReference: {fileID: 2100000, guid: cb487cdeb5ef504439a4430fb947b90b, type: 2}
    - target: {fileID: 4696948787475421906, guid: edb99be64cf0bc64691e837e8023b6ad, type: 3}
      propertyPath: m_RootOrder
      value: 0
      objectReference: {fileID: 0}
    - target: {fileID: 4696948787475421906, guid: edb99be64cf0bc64691e837e8023b6ad, type: 3}
      propertyPath: m_LocalPosition.x
      value: -0
      objectReference: {fileID: 0}
    - target: {fileID: 4696948787475421906, guid: edb99be64cf0bc64691e837e8023b6ad, type: 3}
      propertyPath: m_LocalPosition.y
      value: 0
      objectReference: {fileID: 0}
    - target: {fileID: 4696948787475421906, guid: edb99be64cf0bc64691e837e8023b6ad, type: 3}
      propertyPath: m_LocalPosition.z
      value: 0
      objectReference: {fileID: 0}
    - target: {fileID: 4696948787475421906, guid: edb99be64cf0bc64691e837e8023b6ad, type: 3}
      propertyPath: m_LocalRotation.w
      value: 1
      objectReference: {fileID: 0}
    - target: {fileID: 4696948787475421906, guid: edb99be64cf0bc64691e837e8023b6ad, type: 3}
      propertyPath: m_LocalRotation.x
      value: 0
      objectReference: {fileID: 0}
    - target: {fileID: 4696948787475421906, guid: edb99be64cf0bc64691e837e8023b6ad, type: 3}
      propertyPath: m_LocalRotation.y
      value: -0
      objectReference: {fileID: 0}
    - target: {fileID: 4696948787475421906, guid: edb99be64cf0bc64691e837e8023b6ad, type: 3}
      propertyPath: m_LocalRotation.z
      value: -0
      objectReference: {fileID: 0}
    - target: {fileID: 4696948787475421906, guid: edb99be64cf0bc64691e837e8023b6ad, type: 3}
      propertyPath: m_LocalEulerAnglesHint.x
      value: 0
      objectReference: {fileID: 0}
    - target: {fileID: 4696948787475421906, guid: edb99be64cf0bc64691e837e8023b6ad, type: 3}
      propertyPath: m_LocalEulerAnglesHint.y
      value: 0
      objectReference: {fileID: 0}
    - target: {fileID: 4696948787475421906, guid: edb99be64cf0bc64691e837e8023b6ad, type: 3}
      propertyPath: m_LocalEulerAnglesHint.z
      value: 0
      objectReference: {fileID: 0}
    - target: {fileID: 5360755416078532712, guid: edb99be64cf0bc64691e837e8023b6ad, type: 3}
      propertyPath: m_Name
      value: CHA_Master_01_PB
      objectReference: {fileID: 0}
    m_RemovedComponents: []
  m_SourcePrefab: {fileID: 100100000, guid: edb99be64cf0bc64691e837e8023b6ad, type: 3}
