%YAML 1.1
%TAG !u! tag:unity3d.com,2011:
--- !u!1001 &725418205733805882
PrefabInstance:
  m_ObjectHideFlags: 0
  serializedVersion: 2
  m_Modification:
    m_TransformParent: {fileID: 0}
    m_Modifications:
    - target: {fileID: 3309189168373939262, guid: 5d22ca40f2e855d47b28cc64b8a846a2, type: 3}
      propertyPath: m_Mesh
      value: 
      objectReference: {fileID: 4285293974429161072, guid: 0b2b51af782876143a1446f83507966c, type: 3}
    - target: {fileID: 3309189170047428824, guid: 5d22ca40f2e855d47b28cc64b8a846a2, type: 3}
      propertyPath: m_RootOrder
      value: 0
      objectReference: {fileID: 0}
    - target: {fileID: 3309189170047428824, guid: 5d22ca40f2e855d47b28cc64b8a846a2, type: 3}
      propertyPath: m_LocalPosition.x
      value: 0
      objectReference: {fileID: 0}
    - target: {fileID: 3309189170047428824, guid: 5d22ca40f2e855d47b28cc64b8a846a2, type: 3}
      propertyPath: m_LocalPosition.y
      value: 0
      objectReference: {fileID: 0}
    - target: {fileID: 3309189170047428824, guid: 5d22ca40f2e855d47b28cc64b8a846a2, type: 3}
      propertyPath: m_LocalPosition.z
      value: 0
      objectReference: {fileID: 0}
    - target: {fileID: 3309189170047428824, guid: 5d22ca40f2e855d47b28cc64b8a846a2, type: 3}
      propertyPath: m_LocalRotation.w
      value: 1
      objectReference: {fileID: 0}
    - target: {fileID: 3309189170047428824, guid: 5d22ca40f2e855d47b28cc64b8a846a2, type: 3}
      propertyPath: m_LocalRotation.x
      value: 0
      objectReference: {fileID: 0}
    - target: {fileID: 3309189170047428824, guid: 5d22ca40f2e855d47b28cc64b8a846a2, type: 3}
      propertyPath: m_LocalRotation.y
      value: 0
      objectReference: {fileID: 0}
    - target: {fileID: 3309189170047428824, guid: 5d22ca40f2e855d47b28cc64b8a846a2, type: 3}
      propertyPath: m_LocalRotation.z
      value: 0
      objectReference: {fileID: 0}
    - target: {fileID: 3309189170047428824, guid: 5d22ca40f2e855d47b28cc64b8a846a2, type: 3}
      propertyPath: m_LocalEulerAnglesHint.x
      value: 0
      objectReference: {fileID: 0}
    - target: {fileID: 3309189170047428824, guid: 5d22ca40f2e855d47b28cc64b8a846a2, type: 3}
      propertyPath: m_LocalEulerAnglesHint.y
      value: 0
      objectReference: {fileID: 0}
    - target: {fileID: 3309189170047428824, guid: 5d22ca40f2e855d47b28cc64b8a846a2, type: 3}
      propertyPath: m_LocalEulerAnglesHint.z
      value: 0
      objectReference: {fileID: 0}
    - target: {fileID: 3309189170047428830, guid: 5d22ca40f2e855d47b28cc64b8a846a2, type: 3}
      propertyPath: m_Name
      value: ENV_WallGrass_007_PB
      objectReference: {fileID: 0}
    m_RemovedComponents: []
  m_SourcePrefab: {fileID: 100100000, guid: 5d22ca40f2e855d47b28cc64b8a846a2, type: 3}
